date,fund,company,ticker,cusip,shares,market value($),weight(%)
11/19/2020,ARKK,TESLA INC,TSLA,88160R101,2362207.0,1179379088.89,10.09
11/19/2020,ARKK,INVITAE CORP,NVTA,46185L103,17614050.0,823809118.5,7.05
11/19/2020,ARKK,ROKU INC,ROKU,77543R102,2938299.0,751234905.33,6.43
11/19/2020,ARKK,CRISPR THERAPEUTICS AG,CRSP,H17182108,6061907.0,662202720.68,5.67
11/19/2020,ARKK,SQUARE INC - A,SQ,852234103,3413762.0,654281624.92,5.6
11/19/2020,ARKK,TELADOC HEALTH INC,TDOC,87918A105,2521690.0,482121911.1,4.13
11/19/2020,ARKK,PROTO LABS INC,PRLB,743713109,2790345.0,370167167.7,3.17
11/19/2020,ARKK,SLACK TECHNOLOGIES INC- CL A,WORK,83088V102,13319454.0,369348459.42,3.16
11/19/2020,ARKK,ZILLOW GROUP INC - C,Z,98954M200,3352105.0,367021976.45,3.14
11/19/2020,ARKK,PURE STORAGE INC - CLASS A,PSTG,74624M102,17474822.0,327652912.5,2.8
11/19/2020,ARKK,SPOTIFY TECHNOLOGY SA,SPOT,L8681T102,1227618.0,306830842.92,2.63
11/19/2020,ARKK,LENDINGTREE INC,TREE UW,52603B107,1062623.0,287067603.45,2.46
11/19/2020,ARKK,2U INC,TWOU,90214J101,8127927.0,274723932.6,2.35
11/19/2020,ARKK,SERES THERAPEUTICS INC,MCRB,81750R102,8508689.0,272703482.45,2.33
11/19/2020,ARKK,MATERIALISE NV-ADR,MTLS,57667T100,5582030.0,241366977.2,2.07
11/19/2020,ARKK,IOVANCE BIOTHERAPEUTICS INC,IOVA,462260100,6578043.0,240690593.37,2.06
11/19/2020,ARKK,PAGERDUTY INC,PD,69553P100,7620667.0,229534490.04,1.96
11/19/2020,ARKK,TWIST BIOSCIENCE CORP,TWST,90184D100,1986074.0,227405473.0,1.95
11/19/2020,ARKK,VERACYTE INC,VCYT,92337F107,4638637.0,226504644.71,1.94
11/19/2020,ARKK,INTELLIA THERAPEUTICS INC,NTLA,45826J105,6660513.0,214868149.38,1.84
11/19/2020,ARKK,TWILIO INC - A,TWLO,90138F102,714949.0,211367522.36,1.81
11/19/2020,ARKK,EDITAS MEDICINE INC,EDIT,28106W103,7146853.0,200326289.59,1.71
11/19/2020,ARKK,TAIWAN SEMICONDUCTOR-SP ADR,TSM,874039100,1977040.0,191001834.4,1.63
11/19/2020,ARKK,EXACT SCIENCES CORP,EXAS,30063P105,1605137.0,181669405.66,1.55
11/19/2020,ARKK,DOCUSIGN INC,DOCU,256163106,714864.0,157055620.8,1.34
11/19/2020,ARKK,INTERCONTINENTAL EXCHANGE IN,ICE,45866F104,1472989.0,148624590.1,1.27
11/19/2020,ARKK,COMPUGEN LTD,CGEN,M25722105,10949860.0,141362692.6,1.21
11/19/2020,ARKK,NINTENDO CO LTD-UNSPONS ADR,NTDOY,654445303,1995295.0,133325611.9,1.14
11/19/2020,ARKK,UNITY SOFTWARE INC,U,91332U101,1100905.0,128046260.55,1.1
11/19/2020,ARKK,SPLUNK INC,SPLK,848637104,638479.0,127236095.12,1.09
11/19/2020,ARKK,IRIDIUM COMMUNICATIONS INC,IRDM,46269C102,3763034.0,121771780.24,1.04
11/19/2020,ARKK,CERUS CORP,CERS,157085101,19235009.0,119834106.07,1.03
11/19/2020,ARKK,NANOSTRING TECHNOLOGIES INC,NSTG,63009R109,2515883.0,119202536.54,1.02
11/19/2020,ARKK,PINTEREST INC- CLASS A,PINS,72352L106,1771483.0,116829303.85,1.0
11/19/2020,ARKK,SYNOPSYS INC,SNPS,871607107,523019.0,115733644.32,0.99
11/19/2020,ARKK,PAYPAL HOLDINGS INC,PYPL,70450Y103,572773.0,109342365.7,0.94
11/19/2020,ARKK,PACIFIC BIOSCIENCES OF CALIF,PACB,69404D108,7021891.0,107786026.85,0.92
11/19/2020,ARKK,TENCENT HOLDINGS LTD-UNS ADR,TCEHY,88032Q109,1420831.0,106818074.58,0.91
11/19/2020,ARKK,ZOOM VIDEO COMMUNICATIONS-A,ZM,98980L101,251416.0,104159134.64,0.89
11/19/2020,ARKK,HUYA INC-ADR,HUYA,44852D108,4975156.0,104428524.44,0.89
11/19/2020,ARKK,STRATASYS LTD,SSYS,M85548101,7113304.0,98590393.44,0.84
11/19/2020,ARKK,KE HOLDINGS INC,BEKE,482497104,1484801.0,88122939.35,0.75
11/19/2020,ARKK,SEA LTD-ADR,SE,81141R100,337994.0,58631819.18,0.5
11/19/2020,ARKK,SHOPIFY INC - CLASS A,SHOP,82509L107,60306.0,58302031.62,0.5
11/19/2020,ARKK,MORGAN STANLEY GOVT INSTL 8035,,X9USDMORS,46812794.88,46812794.88,0.4
11/19/2020,ARKK,SYROS PHARMACEUTICALS INC,SYRS,87184Q107,5102055.0,40153172.85,0.34
11/19/2020,ARKK,EXONE CO/THE,XONE,302104104,1761033.0,19089597.72,0.16
11/19/2020,ARKK,DOUYU INTERNATIONAL HOLD-ADR,DOYU,25985W105,898523.0,12210927.57,0.1
11/19/2020,ARKK,ORGANOVO HOLDINGS INC,ONVO ,68620A203,836011.0,7440497.9,0.06
11/20/2020,ARKK,TESLA INC,TSLA,88160R101,2362207.0,1156560169.27,9.71
11/20/2020,ARKK,INVITAE CORP,NVTA,46185L103,17598486.0,844727328.0,7.09
11/20/2020,ARKK,ROKU INC,ROKU,77543R102,2938299.0,773183998.86,6.49
11/20/2020,ARKK,SQUARE INC - A,SQ,852234103,3413762.0,668994939.14,5.62
11/20/2020,ARKK,CRISPR THERAPEUTICS AG,CRSP,H17182108,6061907.0,664991197.9,5.59
11/20/2020,ARKK,TELADOC HEALTH INC,TDOC,87918A105,2521690.0,504338000.0,4.24
11/20/2020,ARKK,SLACK TECHNOLOGIES INC- CL A,WORK,83088V102,13319454.0,389460834.96,3.27
11/20/2020,ARKK,PROTO LABS INC,PRLB,743713109,2790345.0,375050271.45,3.15
11/20/2020,ARKK,ZILLOW GROUP INC - C,Z,98954M200,3352105.0,373960833.8,3.14
11/20/2020,ARKK,PURE STORAGE INC - CLASS A,PSTG,74624M102,17474822.0,329575142.92,2.77
11/20/2020,ARKK,SPOTIFY TECHNOLOGY SA,SPOT,L8681T102,1227618.0,319180680.0,2.68
11/20/2020,ARKK,SERES THERAPEUTICS INC,MCRB,81750R102,8501171.0,293205387.79,2.46
11/20/2020,ARKK,LENDINGTREE INC,TREE UW,52603B107,1062623.0,286865705.08,2.41
11/20/2020,ARKK,2U INC,TWOU,90214J101,8120745.0,277079819.4,2.33
11/20/2020,ARKK,MATERIALISE NV-ADR,MTLS,57667T100,5582030.0,247618850.8,2.08
11/20/2020,ARKK,IOVANCE BIOTHERAPEUTICS INC,IOVA,462260100,6578043.0,239769667.35,2.01
11/20/2020,ARKK,VERACYTE INC,VCYT,92337F107,4638637.0,238611487.28,2.0
11/20/2020,ARKK,PAGERDUTY INC,PD,69553P100,7613933.0,237250152.28,1.99
11/20/2020,ARKK,TWIST BIOSCIENCE CORP,TWST,90184D100,1986076.0,229510942.56,1.93
11/20/2020,ARKK,INTELLIA THERAPEUTICS INC,NTLA,45826J105,6654627.0,215210637.18,1.81
11/20/2020,ARKK,TWILIO INC - A,TWLO,90138F102,714949.0,213276436.19,1.79
11/20/2020,ARKK,EDITAS MEDICINE INC,EDIT,28106W103,7140537.0,202934061.54,1.7
11/20/2020,ARKK,EXACT SCIENCES CORP,EXAS,30063P105,1696239.0,195457619.97,1.64
11/20/2020,ARKK,TAIWAN SEMICONDUCTOR-SP ADR,TSM,874039100,1977040.0,188471223.2,1.58
11/20/2020,ARKK,DOCUSIGN INC,DOCU,256163106,714864.0,158406713.76,1.33
11/20/2020,ARKK,INTERCONTINENTAL EXCHANGE IN,ICE,45866F104,1472989.0,148860268.34,1.25
11/20/2020,ARKK,COMPUGEN LTD,CGEN,M25722105,10940184.0,144629232.48,1.21
11/20/2020,ARKK,NINTENDO CO LTD-UNSPONS ADR,NTDOY,654445303,2062795.0,136804564.4,1.15
11/20/2020,ARKK,UNITY SOFTWARE INC,U,91332U101,1100905.0,135191134.0,1.14
11/20/2020,ARKK,SPLUNK INC,SPLK,848637104,638479.0,127019012.26,1.07
11/20/2020,ARKK,IRIDIUM COMMUNICATIONS INC,IRDM,46269C102,3763034.0,120153675.62,1.01
11/20/2020,ARKK,CERUS CORP,CERS,157085101,19218009.0,119728196.07,1.01
11/20/2020,ARKK,NANOSTRING TECHNOLOGIES INC,NSTG,63009R109,2515883.0,120737225.17,1.01
11/20/2020,ARKK,PINTEREST INC- CLASS A,PINS,72352L106,1771483.0,118423638.55,0.99
11/20/2020,ARKK,SYNOPSYS INC,SNPS,871607107,523019.0,114284881.69,0.96
11/20/2020,ARKK,PAYPAL HOLDINGS INC,PYPL,70450Y103,572773.0,110356173.91,0.93
11/20/2020,ARKK,ZOOM VIDEO COMMUNICATIONS-A,ZM,98980L101,251416.0,110522473.6,0.93
11/20/2020,ARKK,TENCENT HOLDINGS LTD-UNS ADR,TCEHY,88032Q109,1420831.0,108551488.4,0.91
11/20/2020,ARKK,PACIFIC BIOSCIENCES OF CALIF,PACB,69404D108,7021891.0,105890116.28,0.89
11/20/2020,ARKK,HUYA INC-ADR,HUYA,44852D108,4975156.0,104329021.32,0.88
11/20/2020,ARKK,STRATASYS LTD,SSYS,M85548101,7107018.0,98680944.93,0.83
11/20/2020,ARKK,KE HOLDINGS INC,BEKE,482497104,1484801.0,90275900.8,0.76
11/20/2020,ARKK,MORGAN STANLEY GOVT INSTL 8035,,X9USDMORS,68440945.13,68440945.13,0.57
11/20/2020,ARKK,SEA LTD-ADR,SE,81141R100,337994.0,61890081.34,0.52
11/20/2020,ARKK,SHOPIFY INC - CLASS A,SHOP,82509L107,60306.0,59613084.06,0.5
11/20/2020,ARKK,SYROS PHARMACEUTICALS INC,SYRS,87184Q107,5097545.0,39811826.45,0.33
11/20/2020,ARKK,EXONE CO/THE,XONE,302104104,1740630.0,18868429.2,0.16
11/20/2020,ARKK,DOUYU INTERNATIONAL HOLD-ADR,DOYU,25985W105,898523.0,12426573.09,0.1
11/20/2020,ARKK,ORGANOVO HOLDINGS INC,ONVO ,68620A203,835271.0,7492380.87,0.06
11/23/2020,ARKK,TESLA INC,TSLA,88160R101,2393527.0,1249062064.95,10.16
11/23/2020,ARKK,INVITAE CORP,NVTA,46185L103,17598486.0,896114907.12,7.29
11/23/2020,ARKK,ROKU INC,ROKU,77543R102,2977239.0,823444762.62,6.7
11/23/2020,ARKK,SQUARE INC - A,SQ,852234103,3459002.0,718711435.56,5.85
11/23/2020,ARKK,CRISPR THERAPEUTICS AG,CRSP,H17182108,6142277.0,675650470.0,5.5
11/23/2020,ARKK,TELADOC HEALTH INC,TDOC,87918A105,2555110.0,495716891.1,4.03
11/23/2020,ARKK,SLACK TECHNOLOGIES INC- CL A,WORK,83088V102,13496034.0,403936297.62,3.29
11/23/2020,ARKK,ZILLOW GROUP INC - C,Z,98954M200,3396535.0,387646539.55,3.15
11/23/2020,ARKK,PROTO LABS INC,PRLB,743713109,2827335.0,377053395.6,3.07
11/23/2020,ARKK,PURE STORAGE INC - CLASS A,PSTG,74624M102,17706512.0,348641221.28,2.84
11/23/2020,ARKK,SPOTIFY TECHNOLOGY SA,SPOT,L8681T102,1243878.0,334429039.08,2.72
11/23/2020,ARKK,SERES THERAPEUTICS INC,MCRB,81750R102,8501171.0,289719907.68,2.36
11/23/2020,ARKK,2U INC,TWOU,90214J101,8120745.0,278622760.95,2.27
11/23/2020,ARKK,LENDINGTREE INC,TREE UW,52603B107,1076723.0,275178097.11,2.24
11/23/2020,ARKK,MATERIALISE NV-ADR,MTLS,57667T100,5656040.0,252768427.6,2.06
11/23/2020,ARKK,IOVANCE BIOTHERAPEUTICS INC,IOVA,462260100,6665253.0,248947199.55,2.02
11/23/2020,ARKK,VERACYTE INC,VCYT,92337F107,4700137.0,242292062.35,1.97
11/23/2020,ARKK,PAGERDUTY INC,PD,69553P100,7613933.0,240980979.45,1.96
11/23/2020,ARKK,TWIST BIOSCIENCE CORP,TWST,90184D100,2012416.0,235835031.04,1.92
11/23/2020,ARKK,INTELLIA THERAPEUTICS INC,NTLA,45826J105,6654627.0,228120613.56,1.86
11/23/2020,ARKK,TWILIO INC - A,TWLO,90138F102,724429.0,218574717.88,1.78
11/23/2020,ARKK,EDITAS MEDICINE INC,EDIT,28106W103,7140537.0,209431950.21,1.7
11/23/2020,ARKK,EXACT SCIENCES CORP,EXAS,30063P105,1718739.0,207176799.06,1.69
11/23/2020,ARKK,TAIWAN SEMICONDUCTOR-SP ADR,TSM,874039100,2003260.0,196579903.8,1.6
11/23/2020,ARKK,DOCUSIGN INC,DOCU,256163106,724344.0,157305786.48,1.28
11/23/2020,ARKK,INTERCONTINENTAL EXCHANGE IN,ICE,45866F104,1492519.0,152774244.84,1.24
11/23/2020,ARKK,NINTENDO CO LTD-UNSPONS ADR,NTDOY,654445303,2187720.0,145133344.8,1.18
11/23/2020,ARKK,UNITY SOFTWARE INC,U,91332U101,1115485.0,144343759.0,1.17
11/23/2020,ARKK,COMPUGEN LTD,CGEN,M25722105,10940184.0,143644615.92,1.17
11/23/2020,ARKK,SPLUNK INC,SPLK,848637104,646939.0,128165085.29,1.04
11/23/2020,ARKK,NANOSTRING TECHNOLOGIES INC,NSTG,63009R109,2549243.0,122363664.0,1.0
11/23/2020,ARKK,IRIDIUM COMMUNICATIONS INC,IRDM,46269C102,3812924.0,122890540.52,1.0
11/23/2020,ARKK,CERUS CORP,CERS,157085101,19218009.0,120208646.3,0.98
11/23/2020,ARKK,PINTEREST INC- CLASS A,PINS,72352L106,1794973.0,118091273.67,0.96
11/23/2020,ARKK,PAYPAL HOLDINGS INC,PYPL,70450Y103,580363.0,116548497.66,0.95
11/23/2020,ARKK,SYNOPSYS INC,SNPS,871607107,529949.0,114468984.0,0.93
11/23/2020,ARKK,HUYA INC-ADR,HUYA,44852D108,5041126.0,108938732.86,0.89
11/23/2020,ARKK,ZOOM VIDEO COMMUNICATIONS-A,ZM,98980L101,254746.0,109612108.88,0.89
11/23/2020,ARKK,TENCENT HOLDINGS LTD-UNS ADR,TCEHY,88032Q109,1439671.0,107500233.57,0.87
11/23/2020,ARKK,PACIFIC BIOSCIENCES OF CALIF,PACB,69404D108,7114981.0,106226666.33,0.86
11/23/2020,ARKK,STRATASYS LTD,SSYS,M85548101,7107018.0,99356111.64,0.81
11/23/2020,ARKK,KE HOLDINGS INC,BEKE,482497104,1504481.0,94737168.57,0.77
11/23/2020,ARKK,SEA LTD-ADR,SE,81141R100,342464.0,62643514.88,0.51
11/23/2020,ARKK,SHOPIFY INC - CLASS A,SHOP,82509L107,61116.0,59894291.16,0.49
11/23/2020,ARKK,MORGAN STANLEY GOVT INSTL 8035,,X9USDMORS,47946509.8,47946509.8,0.39
11/23/2020,ARKK,SYROS PHARMACEUTICALS INC,SYRS,87184Q107,5097545.0,40245117.78,0.33
11/23/2020,ARKK,EXONE CO/THE,XONE,302104104,1575930.0,17366748.6,0.14
11/23/2020,ARKK,DOUYU INTERNATIONAL HOLD-ADR,DOYU,25985W105,907290.0,12692987.1,0.1
11/23/2020,ARKK,ORGANOVO HOLDINGS INC,ONVO ,68620A203,835271.0,7266857.7,0.06
11/24/2020,ARKK,TESLA INC,TSLA,88160R101,2412319.0,1339753726.22,10.97
11/24/2020,ARKK,INVITAE CORP,NVTA,46185L103,17598486.0,820969371.9,6.72
11/24/2020,ARKK,ROKU INC,ROKU,77543R102,3000603.0,819194625.03,6.71
11/24/2020,ARKK,SQUARE INC - A,SQ,852234103,3486146.0,707339023.4,5.79
11/24/2020,ARKK,CRISPR THERAPEUTICS AG,CRSP,H17182108,6190499.0,680892985.01,5.57
11/24/2020,ARKK,TELADOC HEALTH INC,TDOC,87918A105,2575162.0,480061700.04,3.93
11/24/2020,ARKK,SLACK TECHNOLOGIES INC- CL A,WORK,83088V102,13601982.0,402346627.56,3.29
11/24/2020,ARKK,PROTO LABS INC,PRLB,743713109,2849529.0,388675755.6,3.18
11/24/2020,ARKK,ZILLOW GROUP INC - C,Z,98954M200,3423193.0,366281651.0,3.0
11/24/2020,ARKK,PURE STORAGE INC - CLASS A,PSTG,74624M102,17845526.0,352627593.76,2.89
11/24/2020,ARKK,SPOTIFY TECHNOLOGY SA,SPOT,L8681T102,1253634.0,338656688.76,2.77
11/24/2020,ARKK,LENDINGTREE INC,TREE UW,52603B107,1085183.0,283449799.6,2.32
11/24/2020,ARKK,2U INC,TWOU,90214J101,8120745.0,265710776.4,2.18
11/24/2020,ARKK,SERES THERAPEUTICS INC,MCRB,81750R102,8501171.0,260815926.28,2.14
11/24/2020,ARKK,MATERIALISE NV-ADR,MTLS,57667T100,5700446.0,250819624.0,2.05
11/24/2020,ARKK,IOVANCE BIOTHERAPEUTICS INC,IOVA,462260100,6717579.0,249625235.64,2.04
11/24/2020,ARKK,PAGERDUTY INC,PD,69553P100,7613933.0,248290355.13,2.03
11/24/2020,ARKK,VERACYTE INC,VCYT,92337F107,4737037.0,245757479.56,2.01
11/24/2020,ARKK,INTELLIA THERAPEUTICS INC,NTLA,45826J105,6654627.0,231647565.87,1.9
11/24/2020,ARKK,TWILIO INC - A,TWLO,90138F102,730117.0,213194164.0,1.75
11/24/2020,ARKK,TWIST BIOSCIENCE CORP,TWST,90184D100,2028220.0,211279677.4,1.73
11/24/2020,ARKK,EDITAS MEDICINE INC,EDIT,28106W103,7140537.0,207218383.74,1.7
11/24/2020,ARKK,EXACT SCIENCES CORP,EXAS,30063P105,1732239.0,203122345.14,1.66
11/24/2020,ARKK,TAIWAN SEMICONDUCTOR-SP ADR,TSM,874039100,2018992.0,195115386.88,1.6
11/24/2020,ARKK,DOCUSIGN INC,DOCU,256163106,730032.0,158562950.4,1.3
11/24/2020,ARKK,INTERCONTINENTAL EXCHANGE IN,ICE,45866F104,1504237.0,155041707.59,1.27
11/24/2020,ARKK,NINTENDO CO LTD-UNSPONS ADR,NTDOY,654445303,2239928.0,147432060.96,1.21
11/24/2020,ARKK,UNITY SOFTWARE INC,U,91332U101,1124233.0,145071026.32,1.19
11/24/2020,ARKK,COMPUGEN LTD,CGEN,M25722105,10940184.0,133470244.8,1.09
11/24/2020,ARKK,SPLUNK INC,SPLK,848637104,652015.0,129418457.35,1.06
11/24/2020,ARKK,IRIDIUM COMMUNICATIONS INC,IRDM,46269C102,3842858.0,125392456.54,1.03
11/24/2020,ARKK,PAYPAL HOLDINGS INC,PYPL,70450Y103,584917.0,120492902.0,0.99
11/24/2020,ARKK,NANOSTRING TECHNOLOGIES INC,NSTG,63009R109,2569259.0,121474565.52,0.99
11/24/2020,ARKK,PINTEREST INC- CLASS A,PINS,72352L106,1809067.0,115834560.01,0.95
11/24/2020,ARKK,SYNOPSYS INC,SNPS,871607107,534107.0,115094717.43,0.94
11/24/2020,ARKK,CERUS CORP,CERS,157085101,19218009.0,112809712.83,0.92
11/24/2020,ARKK,ZOOM VIDEO COMMUNICATIONS-A,ZM,98980L101,256744.0,109770897.2,0.9
11/24/2020,ARKK,HUYA INC-ADR,HUYA,44852D108,5080708.0,109590871.56,0.9
11/24/2020,ARKK,TENCENT HOLDINGS LTD-UNS ADR,TCEHY,88032Q109,1450975.0,109969395.25,0.9
11/24/2020,ARKK,STRATASYS LTD,SSYS,M85548101,7107018.0,107884533.24,0.88
11/24/2020,ARKK,PACIFIC BIOSCIENCES OF CALIF,PACB,69404D108,7170835.0,103331732.35,0.85
11/24/2020,ARKK,KE HOLDINGS INC,BEKE,482497104,1516289.0,97163799.12,0.8
11/24/2020,ARKK,SEA LTD-ADR,SE,81141R100,345146.0,61063230.32,0.5
11/24/2020,ARKK,SHOPIFY INC - CLASS A,SHOP,82509L107,61602.0,59830326.48,0.49
11/24/2020,ARKK,SYROS PHARMACEUTICALS INC,SYRS,87184Q107,5097545.0,40066703.7,0.33
11/24/2020,ARKK,MORGAN STANLEY GOVT INSTL 8035,,X9USDMORS,37692951.56,37692951.56,0.31
11/24/2020,ARKK,EXONE CO/THE,XONE,302104104,1535699.0,16478050.27,0.13
11/24/2020,ARKK,DOUYU INTERNATIONAL HOLD-ADR,DOYU,25985W105,882471.0,12354594.0,0.1
11/24/2020,ARKK,ORGANOVO HOLDINGS INC,ONVO ,68620A203,835271.0,7041334.53,0.06
11/25/2020,ARKK,TESLA INC,TSLA,88160R101,2415451.0,1386468874.0,11.06
11/25/2020,ARKK,ROKU INC,ROKU,77543R102,3004497.0,835430435.82,6.67
11/25/2020,ARKK,INVITAE CORP,NVTA,46185L103,17598486.0,824489069.1,6.58
11/25/2020,ARKK,SQUARE INC - A,SQ,852234103,3490670.0,743233456.4,5.93
11/25/2020,ARKK,CRISPR THERAPEUTICS AG,CRSP,H17182108,6198536.0,681838960.0,5.44
11/25/2020,ARKK,SLACK TECHNOLOGIES INC- CL A,WORK,83088V102,13619640.0,554319348.0,4.42
11/25/2020,ARKK,TELADOC HEALTH INC,TDOC,87918A105,2578504.0,491437077.36,3.92
11/25/2020,ARKK,PROTO LABS INC,PRLB,743713109,2853228.0,388096072.56,3.1
11/25/2020,ARKK,ZILLOW GROUP INC - C,Z,98954M200,3427636.0,367065539.24,2.93
11/25/2020,ARKK,SPOTIFY TECHNOLOGY SA,SPOT,L8681T102,1255260.0,339033173.4,2.71
11/25/2020,ARKK,PURE STORAGE INC - CLASS A,PSTG,74624M102,17868695.0,323959440.35,2.58
11/25/2020,ARKK,LENDINGTREE INC,TREE UW,52603B107,1086593.0,282611973.37,2.25
11/25/2020,ARKK,2U INC,TWOU,90214J101,8120745.0,270014771.25,2.15
11/25/2020,ARKK,IOVANCE BIOTHERAPEUTICS INC,IOVA,462260100,6726300.0,255195822.0,2.04
11/25/2020,ARKK,MATERIALISE NV-ADR,MTLS,57667T100,5707847.0,252058523.52,2.01
11/25/2020,ARKK,PAGERDUTY INC,PD,69553P100,7613933.0,250879092.35,2.0
11/25/2020,ARKK,SERES THERAPEUTICS INC,MCRB,81750R102,8501171.0,249849415.69,1.99
11/25/2020,ARKK,VERACYTE INC,VCYT,92337F107,4743187.0,241428218.3,1.93
11/25/2020,ARKK,INTELLIA THERAPEUTICS INC,NTLA,45826J105,6654627.0,238634924.22,1.9
11/25/2020,ARKK,TWILIO INC - A,TWLO,90138F102,731065.0,223340357.5,1.78
11/25/2020,ARKK,EDITAS MEDICINE INC,EDIT,28106W103,7140537.0,210288814.65,1.68
11/25/2020,ARKK,TWIST BIOSCIENCE CORP,TWST,90184D100,2030854.0,202354292.56,1.61
11/25/2020,ARKK,EXACT SCIENCES CORP,EXAS,30063P105,1734489.0,200975240.43,1.6
11/25/2020,ARKK,TAIWAN SEMICONDUCTOR-SP ADR,TSM,874039100,2021614.0,197087148.86,1.57
11/25/2020,ARKK,DOCUSIGN INC,DOCU,256163106,730980.0,163849167.0,1.31
11/25/2020,ARKK,INTERCONTINENTAL EXCHANGE IN,ICE,45866F104,1506190.0,156538326.7,1.25
11/25/2020,ARKK,UNITY SOFTWARE INC,U,91332U101,1125694.0,154737897.24,1.23
11/25/2020,ARKK,NINTENDO CO LTD-UNSPONS ADR,NTDOY,654445303,2242835.0,149372811.0,1.19
11/25/2020,ARKK,COMPUGEN LTD,CGEN,M25722105,10940184.0,134892468.72,1.08
11/25/2020,ARKK,SPLUNK INC,SPLK,848637104,652861.0,129827938.46,1.04
11/25/2020,ARKK,PAYPAL HOLDINGS INC,PYPL,70450Y103,585676.0,125604074.96,1.0
11/25/2020,ARKK,IRIDIUM COMMUNICATIONS INC,IRDM,46269C102,3847847.0,125016549.03,1.0
11/25/2020,ARKK,PINTEREST INC- CLASS A,PINS,72352L106,1811416.0,122125666.72,0.97
11/25/2020,ARKK,NANOSTRING TECHNOLOGIES INC,NSTG,63009R109,2572595.0,119574215.6,0.95
11/25/2020,ARKK,SYNOPSYS INC,SNPS,871607107,534800.0,116062296.0,0.93
11/25/2020,ARKK,CERUS CORP,CERS,157085101,19218009.0,115692414.18,0.92
11/25/2020,ARKK,STRATASYS LTD,SSYS,M85548101,7107018.0,114138709.08,0.91
11/25/2020,ARKK,ZOOM VIDEO COMMUNICATIONS-A,ZM,98980L101,257077.0,114070206.44,0.91
11/25/2020,ARKK,HUYA INC-ADR,HUYA,44852D108,5087305.0,109326184.45,0.87
11/25/2020,ARKK,TENCENT HOLDINGS LTD-UNS ADR,TCEHY,88032Q109,1452859.0,108601210.25,0.87
11/25/2020,ARKK,PACIFIC BIOSCIENCES OF CALIF,PACB,69404D108,7180144.0,104399293.76,0.83
11/25/2020,ARKK,KE HOLDINGS INC,BEKE,482497104,1518257.0,91854548.5,0.73
11/25/2020,ARKK,MORGAN STANLEY GOVT INSTL 8035,,X9USDMORS,65257475.86,65257475.86,0.52
11/25/2020,ARKK,SHOPIFY INC - CLASS A,SHOP,82509L107,61683.0,62887052.16,0.5
11/25/2020,ARKK,SEA LTD-ADR,SE,81141R100,345593.0,61411876.1,0.49
11/25/2020,ARKK,SYROS PHARMACEUTICALS INC,SYRS,87184Q107,5097545.0,40372556.4,0.32
11/25/2020,ARKK,EXONE CO/THE,XONE,302104104,1487356.0,18071375.4,0.14
11/25/2020,ARKK,DOUYU INTERNATIONAL HOLD-ADR,DOYU,25985W105,849587.0,11885722.13,0.09
11/25/2020,ARKK,ORGANOVO HOLDINGS INC,ONVO ,68620A203,835271.0,7158272.47,0.06
11/27/2020,ARKK,TESLA INC,TSLA,88160R101,2421715.0,1418543778.4,10.95
11/27/2020,ARKK,INVITAE CORP,NVTA,46185L103,17598486.0,880980209.16,6.8
11/27/2020,ARKK,ROKU INC,ROKU,77543R102,3012285.0,829402551.9,6.4
11/27/2020,ARKK,CRISPR THERAPEUTICS AG,CRSP,H17182108,6214610.0,755385845.5,5.83
11/27/2020,ARKK,SQUARE INC - A,SQ,852234103,3499724.0,743761344.48,5.74
11/27/2020,ARKK,SLACK TECHNOLOGIES INC- CL A,WORK,83088V102,13654962.0,555347304.54,4.29
11/27/2020,ARKK,TELADOC HEALTH INC,TDOC,87918A105,2585188.0,507860182.6,3.92
11/27/2020,ARKK,PROTO LABS INC,PRLB,743713109,2860626.0,396854644.98,3.06
11/27/2020,ARKK,ZILLOW GROUP INC - C,Z,98954M200,3436522.0,371316202.1,2.87
11/27/2020,ARKK,SPOTIFY TECHNOLOGY SA,SPOT,L8681T102,1258512.0,349388101.44,2.7
11/27/2020,ARKK,PURE STORAGE INC - CLASS A,PSTG,74624M102,17915033.0,330174058.19,2.55
11/27/2020,ARKK,LENDINGTREE INC,TREE UW,52603B107,1089413.0,282669991.11,2.18
11/27/2020,ARKK,2U INC,TWOU,90214J101,8120745.0,269040281.85,2.08
11/27/2020,ARKK,IOVANCE BIOTHERAPEUTICS INC,IOVA,462260100,6743742.0,265568559.96,2.05
11/27/2020,ARKK,INTELLIA THERAPEUTICS INC,NTLA,45826J105,6654627.0,262059211.26,2.02
11/27/2020,ARKK,PAGERDUTY INC,PD,69553P100,7613933.0,260320369.27,2.01
11/27/2020,ARKK,VERACYTE INC,VCYT,92337F107,4755487.0,252991908.4,1.95
11/27/2020,ARKK,MATERIALISE NV-ADR,MTLS,57667T100,5722649.0,251796556.0,1.94
11/27/2020,ARKK,SERES THERAPEUTICS INC,MCRB,81750R102,8501171.0,246618970.71,1.9
11/27/2020,ARKK,TWILIO INC - A,TWLO,90138F102,732961.0,233851207.05,1.8
11/27/2020,ARKK,TWIST BIOSCIENCE CORP,TWST,90184D100,2036122.0,233482109.74,1.8
11/27/2020,ARKK,EDITAS MEDICINE INC,EDIT,28106W103,7140537.0,223784429.58,1.73
11/27/2020,ARKK,EXACT SCIENCES CORP,EXAS,30063P105,1738989.0,205531109.91,1.59
11/27/2020,ARKK,TAIWAN SEMICONDUCTOR-SP ADR,TSM,874039100,2026858.0,200131958.92,1.54
11/27/2020,ARKK,UNITY SOFTWARE INC,U,91332U101,1128610.0,166605408.2,1.29
11/27/2020,ARKK,DOCUSIGN INC,DOCU,256163106,732876.0,166267578.12,1.28
11/27/2020,ARKK,INTERCONTINENTAL EXCHANGE IN,ICE,45866F104,1510096.0,158544979.04,1.22
11/27/2020,ARKK,NINTENDO CO LTD-UNSPONS ADR,NTDOY,654445303,2248649.0,157405430.0,1.21
11/27/2020,ARKK,COMPUGEN LTD,CGEN,M25722105,10940184.0,142222392.0,1.1
11/27/2020,ARKK,SPLUNK INC,SPLK,848637104,654553.0,133548448.59,1.03
11/27/2020,ARKK,IRIDIUM COMMUNICATIONS INC,IRDM,46269C102,3857825.0,126999599.0,0.98
11/27/2020,ARKK,CERUS CORP,CERS,157085101,19218009.0,126454499.22,0.98
11/27/2020,ARKK,PINTEREST INC- CLASS A,PINS,72352L106,1816114.0,126619468.08,0.98
11/27/2020,ARKK,PAYPAL HOLDINGS INC,PYPL,70450Y103,587194.0,124126939.66,0.96
11/27/2020,ARKK,NANOSTRING TECHNOLOGIES INC,NSTG,63009R109,2579267.0,124269084.06,0.96
11/27/2020,ARKK,ZOOM VIDEO COMMUNICATIONS-A,ZM,98980L101,257743.0,121554176.23,0.94
11/27/2020,ARKK,SYNOPSYS INC,SNPS,871607107,536186.0,120867048.12,0.93
11/27/2020,ARKK,STRATASYS LTD,SSYS,M85548101,7107018.0,114991551.24,0.89
11/27/2020,ARKK,PACIFIC BIOSCIENCES OF CALIF,PACB,69404D108,7198762.0,111076897.66,0.86
11/27/2020,ARKK,HUYA INC-ADR,HUYA,44852D108,5100499.0,109609723.51,0.85
11/27/2020,ARKK,TENCENT HOLDINGS LTD-UNS ADR,TCEHY,88032Q109,1456627.0,110630820.65,0.85
11/27/2020,ARKK,KE HOLDINGS INC,BEKE,482497104,1522193.0,98120560.78,0.76
11/27/2020,ARKK,MORGAN STANLEY GOVT INSTL 8035,,X9USDMORS,83567274.5,83567274.5,0.64
11/27/2020,ARKK,SEA LTD-ADR,SE,81141R100,346487.0,63251201.85,0.49
11/27/2020,ARKK,SHOPIFY INC - CLASS A,SHOP,82509L107,61845.0,63971849.55,0.49
11/27/2020,ARKK,SYROS PHARMACEUTICALS INC,SYRS,87184Q107,5097545.0,41544991.75,0.32
11/27/2020,ARKK,EXONE CO/THE,XONE,302104104,1467356.0,18650094.76,0.14
11/27/2020,ARKK,DOUYU INTERNATIONAL HOLD-ADR,DOYU,25985W105,838607.0,11715339.79,0.09
11/27/2020,ARKK,ORGANOVO HOLDINGS INC,ONVO ,68620A203,835271.0,7517439.0,0.06
11/30/2020,ARKK,TESLA INC,TSLA,88160R101,2344991.0,1331016891.6,10.08
11/30/2020,ARKK,ROKU INC,ROKU,77543R102,3057715.0,897653392.55,6.8
11/30/2020,ARKK,INVITAE CORP,NVTA,46185L103,17598486.0,873764829.9,6.61
11/30/2020,ARKK,CRISPR THERAPEUTICS AG,CRSP,H17182108,6308375.0,800658955.0,6.06
11/30/2020,ARKK,SQUARE INC - A,SQ,852234103,3552504.0,749436243.84,5.67
11/30/2020,ARKK,SLACK TECHNOLOGIES INC- CL A,WORK,83088V102,13860972.0,594358479.36,4.5
11/30/2020,ARKK,TELADOC HEALTH INC,TDOC,87918A105,2624178.0,521607861.06,3.95
11/30/2020,ARKK,PROTO LABS INC,PRLB,743713109,2903781.0,401186382.96,3.04
11/30/2020,ARKK,ZILLOW GROUP INC - C,Z,98954M200,3488357.0,376079768.17,2.85
11/30/2020,ARKK,SPOTIFY TECHNOLOGY SA,SPOT,L8681T102,1277482.0,372219930.34,2.82
11/30/2020,ARKK,PURE STORAGE INC - CLASS A,PSTG,74624M102,18185338.0,332246125.26,2.52
11/30/2020,ARKK,LENDINGTREE INC,TREE UW,52603B107,1105863.0,282636465.54,2.14
11/30/2020,ARKK,IOVANCE BIOTHERAPEUTICS INC,IOVA,462260100,6845487.0,265673350.47,2.01
11/30/2020,ARKK,2U INC,TWOU,90214J101,8120745.0,262381270.95,1.99
11/30/2020,ARKK,VERACYTE INC,VCYT,92337F107,4827237.0,263132688.87,1.99
11/30/2020,ARKK,INTELLIA THERAPEUTICS INC,NTLA,45826J105,6654627.0,261327202.29,1.98
11/30/2020,ARKK,PAGERDUTY INC,PD,69553P100,7613933.0,262071573.86,1.98
11/30/2020,ARKK,MATERIALISE NV-ADR,MTLS,57667T100,5808994.0,253039778.64,1.92
11/30/2020,ARKK,TWILIO INC - A,TWLO,90138F102,744021.0,238153681.89,1.8
11/30/2020,ARKK,SERES THERAPEUTICS INC,MCRB,81750R102,8501171.0,234717331.31,1.78
11/30/2020,ARKK,TWIST BIOSCIENCE CORP,TWST,90184D100,2066852.0,230950042.48,1.75
11/30/2020,ARKK,EDITAS MEDICINE INC,EDIT,28106W103,7140537.0,218429026.83,1.65
11/30/2020,ARKK,EXACT SCIENCES CORP,EXAS,30063P105,1765239.0,213699833.34,1.62
11/30/2020,ARKK,TAIWAN SEMICONDUCTOR-SP ADR,TSM,874039100,2057448.0,199613604.96,1.51
11/30/2020,ARKK,UNITY SOFTWARE INC,U,91332U101,1145620.0,174111327.6,1.32
11/30/2020,ARKK,DOCUSIGN INC,DOCU,256163106,743936.0,169528135.68,1.28
11/30/2020,ARKK,NINTENDO CO LTD-UNSPONS ADR,NTDOY,654445303,2282599.0,161950399.05,1.23
11/30/2020,ARKK,INTERCONTINENTAL EXCHANGE IN,ICE,45866F104,1532881.0,161734274.31,1.22
11/30/2020,ARKK,COMPUGEN LTD,CGEN,M25722105,10940184.0,140471962.56,1.06
11/30/2020,ARKK,SPLUNK INC,SPLK,848637104,664423.0,135661888.14,1.03
11/30/2020,ARKK,SHOPIFY INC - CLASS A,SHOP,82509L107,125252.0,136572275.76,1.03
11/30/2020,ARKK,NANOSTRING TECHNOLOGIES INC,NSTG,63009R109,2618187.0,129966802.68,0.98
11/30/2020,ARKK,PINTEREST INC- CLASS A,PINS,72352L106,1843519.0,129083200.38,0.98
11/30/2020,ARKK,CERUS CORP,CERS,157085101,19218009.0,127799759.85,0.97
11/30/2020,ARKK,PAYPAL HOLDINGS INC,PYPL,70450Y103,596049.0,127626011.88,0.97
11/30/2020,ARKK,IRIDIUM COMMUNICATIONS INC,IRDM,46269C102,3916030.0,125665402.7,0.95
11/30/2020,ARKK,ZOOM VIDEO COMMUNICATIONS-A,ZM,98980L101,261628.0,125152370.08,0.95
11/30/2020,ARKK,SYNOPSYS INC,SNPS,871607107,544271.0,123821652.5,0.94
11/30/2020,ARKK,KE HOLDINGS INC,BEKE,482497104,1886624.0,123253145.92,0.93
11/30/2020,ARKK,STRATASYS LTD,SSYS,M85548101,7107018.0,121530007.8,0.92
11/30/2020,ARKK,PACIFIC BIOSCIENCES OF CALIF,PACB,69404D108,7307367.0,115529472.27,0.87
11/30/2020,ARKK,TENCENT HOLDINGS LTD-UNS ADR,TCEHY,88032Q109,1478607.0,107938311.0,0.82
11/30/2020,ARKK,HUYA INC-ADR,HUYA,44852D108,5177464.0,107121730.16,0.81
11/30/2020,ARKK,MORGAN STANLEY GOVT INSTL 8035,,X9USDMORS,87921799.18,87921799.18,0.67
11/30/2020,ARKK,SEA LTD-ADR,SE,81141R100,351702.0,63436489.74,0.48
11/30/2020,ARKK,SYROS PHARMACEUTICALS INC,SYRS,87184Q107,5097545.0,41544991.75,0.31
11/30/2020,ARKK,EXONE CO/THE,XONE,302104104,1467356.0,17490883.52,0.13
11/30/2020,ARKK,DOUYU INTERNATIONAL HOLD-ADR,DOYU,25985W105,828047.0,10979903.22,0.08
11/30/2020,ARKK,ORGANOVO HOLDINGS INC,ONVO ,68620A203,835271.0,7141567.05,0.05
12/1/2020,ARKK,TESLA INC,TSLA,88160R101,2353955.0,1376498725.8,10.31
12/1/2020,ARKK,INVITAE CORP,NVTA,46185L103,17598486.0,882916042.62,6.61
12/1/2020,ARKK,ROKU INC,ROKU,77543R102,3069397.0,876957416.87,6.57
12/1/2020,ARKK,CRISPR THERAPEUTICS AG,CRSP,H17182108,6332477.0,820562369.66,6.15
12/1/2020,ARKK,SQUARE INC - A,SQ,852234103,3566076.0,723913428.0,5.42
12/1/2020,ARKK,SLACK TECHNOLOGIES INC- CL A,WORK,83088V102,13913937.0,609986998.08,4.57
12/1/2020,ARKK,TELADOC HEALTH INC,TDOC,87918A105,2634204.0,514170278.76,3.85
12/1/2020,ARKK,PROTO LABS INC,PRLB,743713109,2914878.0,397414466.52,2.98
12/1/2020,ARKK,ZILLOW GROUP INC - C,Z,98954M200,3501686.0,375345722.34,2.81
12/1/2020,ARKK,SPOTIFY TECHNOLOGY SA,SPOT,L8681T102,1282360.0,365459776.4,2.74
12/1/2020,ARKK,PURE STORAGE INC - CLASS A,PSTG,74624M102,18254818.0,343373126.58,2.57
12/1/2020,ARKK,IOVANCE BIOTHERAPEUTICS INC,IOVA,462260100,6871641.0,283936206.12,2.13
12/1/2020,ARKK,LENDINGTREE INC,TREE UW,52603B107,1110093.0,275591688.18,2.06
12/1/2020,ARKK,2U INC,TWOU,90214J101,8120745.0,268309414.8,2.01
12/1/2020,ARKK,VERACYTE INC,VCYT,92337F107,4845678.0,267190684.92,2.0
12/1/2020,ARKK,PAGERDUTY INC,PD,69553P100,7613933.0,264812589.74,1.98
12/1/2020,ARKK,MATERIALISE NV-ADR,MTLS,57667T100,5831188.0,262986578.8,1.97
12/1/2020,ARKK,INTELLIA THERAPEUTICS INC,NTLA,45826J105,6654627.0,253541288.7,1.9
12/1/2020,ARKK,TWIST BIOSCIENCE CORP,TWST,90184D100,2074745.0,245027384.5,1.84
12/1/2020,ARKK,TWILIO INC - A,TWLO,90138F102,746865.0,234201926.7,1.75
12/1/2020,ARKK,EDITAS MEDICINE INC,EDIT,28106W103,7140537.0,227783130.3,1.71
12/1/2020,ARKK,SERES THERAPEUTICS INC,MCRB,81750R102,8501171.0,224005855.85,1.68
12/1/2020,ARKK,EXACT SCIENCES CORP,EXAS,30063P105,1771980.0,218361095.4,1.64
12/1/2020,ARKK,TAIWAN SEMICONDUCTOR-SP ADR,TSM,874039100,2065314.0,208307570.04,1.56
12/1/2020,ARKK,DOCUSIGN INC,DOCU,256163106,870022.0,187672445.62,1.41
12/1/2020,ARKK,UNITY SOFTWARE INC,U,91332U101,1149994.0,169313616.62,1.27
12/1/2020,ARKK,INTERCONTINENTAL EXCHANGE IN,ICE,45866F104,1538740.0,164891378.4,1.23
12/1/2020,ARKK,NINTENDO CO LTD-UNSPONS ADR,NTDOY,654445303,2291320.0,157734468.8,1.18
12/1/2020,ARKK,COMPUGEN LTD,CGEN,M25722105,10940184.0,140909569.92,1.06
12/1/2020,ARKK,ZOOM VIDEO COMMUNICATIONS-A,ZM,98980L101,342074.0,138988086.94,1.04
12/1/2020,ARKK,SPLUNK INC,SPLK,848637104,666961.0,137680759.23,1.03
12/1/2020,ARKK,SHOPIFY INC - CLASS A,SHOP,82509L107,125729.0,134411844.74,1.01
12/1/2020,ARKK,PACIFIC BIOSCIENCES OF CALIF,PACB,69404D108,7335285.0,131668365.75,0.99
12/1/2020,ARKK,KE HOLDINGS INC,BEKE,482497104,2058333.0,132536061.87,0.99
12/1/2020,ARKK,IRIDIUM COMMUNICATIONS INC,IRDM,46269C102,3930997.0,130273240.58,0.98
12/1/2020,ARKK,CERUS CORP,CERS,157085101,19218009.0,130490281.11,0.98
12/1/2020,ARKK,PAYPAL HOLDINGS INC,PYPL,70450Y103,598326.0,129561512.04,0.97
12/1/2020,ARKK,PINTEREST INC- CLASS A,PINS,72352L106,1850566.0,126227106.86,0.95
12/1/2020,ARKK,NANOSTRING TECHNOLOGIES INC,NSTG,63009R109,2297480.0,125511332.4,0.94
12/1/2020,ARKK,SYNOPSYS INC,SNPS,871607107,546350.0,125671427.0,0.94
12/1/2020,ARKK,STRATASYS LTD,SSYS,M85548101,7107018.0,117479007.54,0.88
12/1/2020,ARKK,TENCENT HOLDINGS LTD-UNS ADR,TCEHY,88032Q109,1484259.0,110725721.4,0.83
12/1/2020,ARKK,HUYA INC-ADR,HUYA,44852D108,5197246.0,104568589.52,0.78
12/1/2020,ARKK,MORGAN STANLEY GOVT INSTL 8035,,X9USDMORS,96443863.84,96443863.84,0.72
12/1/2020,ARKK,SEA LTD-ADR,SE,81141R100,353043.0,62622767.34,0.47
12/1/2020,ARKK,SYROS PHARMACEUTICALS INC,SYRS,87184Q107,5097545.0,40780360.0,0.31
12/1/2020,ARKK,EXONE CO/THE,XONE,302104104,1463825.0,17185305.5,0.13
12/1/2020,ARKK,DOUYU INTERNATIONAL HOLD-ADR,DOYU,25985W105,831224.0,10423548.96,0.08
12/1/2020,ARKK,ORGANOVO HOLDINGS INC,ONVO ,68620A203,835271.0,7141567.05,0.05
12/2/2020,ARKK,TESLA INC,TSLA,88160R101,2376863.0,1352007211.66,10.04
12/2/2020,ARKK,ROKU INC,ROKU,77543R102,3099274.0,871918754.42,6.47
12/2/2020,ARKK,INVITAE CORP,NVTA,46185L103,17598486.0,868485284.1,6.45
12/2/2020,ARKK,CRISPR THERAPEUTICS AG,CRSP,H17182108,6394094.0,841079124.76,6.25
12/2/2020,ARKK,SQUARE INC - A,SQ,852234103,3600783.0,727358166.0,5.4
12/2/2020,ARKK,TELADOC HEALTH INC,TDOC,87918A105,2737567.0,533907692.01,3.96
12/2/2020,ARKK,SLACK TECHNOLOGIES INC- CL A,WORK,83088V102,9870075.0,421550903.25,3.13
12/2/2020,ARKK,SPOTIFY TECHNOLOGY SA,SPOT,L8681T102,1294826.0,415496715.14,3.09
12/2/2020,ARKK,PROTO LABS INC,PRLB,743713109,2943237.0,393863975.34,2.92
12/2/2020,ARKK,ZILLOW GROUP INC - C,Z,98954M200,3535749.0,378678717.9,2.81
12/2/2020,ARKK,PURE STORAGE INC - CLASS A,PSTG,74624M102,18432447.0,351138115.35,2.61
12/2/2020,ARKK,IOVANCE BIOTHERAPEUTICS INC,IOVA,462260100,6938502.0,286698902.64,2.13
12/2/2020,ARKK,TWILIO INC - A,TWLO,90138F102,860212.0,275560312.08,2.05
12/2/2020,ARKK,INTELLIA THERAPEUTICS INC,NTLA,45826J105,6654627.0,273372077.16,2.03
12/2/2020,ARKK,VERACYTE INC,VCYT,92337F107,4892828.0,269496966.24,2.0
12/2/2020,ARKK,LENDINGTREE INC,TREE UW,52603B107,1120903.0,267032721.69,1.98
12/2/2020,ARKK,MATERIALISE NV-ADR,MTLS,57667T100,5887929.0,265427839.32,1.97
12/2/2020,ARKK,2U INC,TWOU,90214J101,8120745.0,262218856.05,1.95
12/2/2020,ARKK,TAIWAN SEMICONDUCTOR-SP ADR,TSM,874039100,2618119.0,260607565.26,1.94
12/2/2020,ARKK,PAGERDUTY INC,PD,69553P100,7613933.0,261005623.24,1.94
12/2/2020,ARKK,TWIST BIOSCIENCE CORP,TWST,90184D100,2094939.0,241064630.73,1.79
12/2/2020,ARKK,EXACT SCIENCES CORP,EXAS,30063P105,1872043.0,232900869.63,1.73
12/2/2020,ARKK,EDITAS MEDICINE INC,EDIT,28106W103,7140537.0,225355347.72,1.67
12/2/2020,ARKK,SERES THERAPEUTICS INC,MCRB,81750R102,8501171.0,213634427.23,1.59
12/2/2020,ARKK,DOCUSIGN INC,DOCU,256163106,940555.0,204758823.5,1.52
12/2/2020,ARKK,PAYPAL HOLDINGS INC,PYPL,70450Y103,946691.0,201228638.96,1.49
12/2/2020,ARKK,INTERCONTINENTAL EXCHANGE IN,ICE,45866F104,1675761.0,178569092.16,1.33
12/2/2020,ARKK,UNITY SOFTWARE INC,U,91332U101,1161195.0,163786554.75,1.22
12/2/2020,ARKK,NINTENDO CO LTD-UNSPONS ADR,NTDOY,654445303,2313607.0,158204446.66,1.17
12/2/2020,ARKK,ZOOM VIDEO COMMUNICATIONS-A,ZM,98980L101,345409.0,142605559.74,1.06
12/2/2020,ARKK,SHOPIFY INC - CLASS A,SHOP,82509L107,132486.0,143010687.84,1.06
12/2/2020,ARKK,SPLUNK INC,SPLK,848637104,673447.0,138669471.77,1.03
12/2/2020,ARKK,COMPUGEN LTD,CGEN,M25722105,10940184.0,137408711.04,1.02
12/2/2020,ARKK,KE HOLDINGS INC,BEKE,482497104,2187279.0,137076774.93,1.02
12/2/2020,ARKK,CERUS CORP,CERS,157085101,19218009.0,135294783.36,1.0
12/2/2020,ARKK,PACIFIC BIOSCIENCES OF CALIF,PACB,69404D108,7406677.0,133320186.0,0.99
12/2/2020,ARKK,IRIDIUM COMMUNICATIONS INC,IRDM,46269C102,3969246.0,130548500.94,0.97
12/2/2020,ARKK,PINTEREST INC- CLASS A,PINS,72352L106,1868575.0,127081785.75,0.94
12/2/2020,ARKK,TENCENT HOLDINGS LTD-UNS ADR,TCEHY,88032Q109,1675703.0,124839873.5,0.93
12/2/2020,ARKK,SYNOPSYS INC,SNPS,871607107,551663.0,123969709.36,0.92
12/2/2020,ARKK,STRATASYS LTD,SSYS,M85548101,7107018.0,123662113.2,0.92
12/2/2020,ARKK,NANOSTRING TECHNOLOGIES INC,NSTG,63009R109,2183759.0,123404221.09,0.92
12/2/2020,ARKK,MORGAN STANLEY GOVT INSTL 8035,,X9USDMORS,112845981.65,112845981.65,0.84
12/2/2020,ARKK,HUYA INC-ADR,HUYA,44852D108,5247823.0,103592026.02,0.77
12/2/2020,ARKK,SEA LTD-ADR,SE,81141R100,356470.0,65547703.6,0.49
12/2/2020,ARKK,SYROS PHARMACEUTICALS INC,SYRS,87184Q107,5097545.0,38996219.25,0.29
12/2/2020,ARKK,EXONE CO/THE,XONE,302104104,1431281.0,16559921.17,0.12
12/2/2020,ARKK,ORGANOVO HOLDINGS INC,ONVO ,68620A203,835271.0,6932749.3,0.05
12/2/2020,ARKK,DOUYU INTERNATIONAL HOLD-ADR,DOYU,25985W105,375391.0,4651094.49,0.03
12/3/2020,ARKK,TESLA INC,TSLA,88160R101,2396783.0,1422203096.54,10.36
12/3/2020,ARKK,CRISPR THERAPEUTICS AG,CRSP,H17182108,6447674.0,905640290.04,6.6
12/3/2020,ARKK,ROKU INC,ROKU,77543R102,3125234.0,903505149.4,6.58
12/3/2020,ARKK,INVITAE CORP,NVTA,46185L103,17598486.0,881156194.02,6.42
12/3/2020,ARKK,SQUARE INC - A,SQ,852234103,3630963.0,746271825.39,5.44
12/3/2020,ARKK,TELADOC HEALTH INC,TDOC,87918A105,2852326.0,562507210.46,4.1
12/3/2020,ARKK,SPOTIFY TECHNOLOGY SA,SPOT,L8681T102,1305686.0,413158220.98,3.01
12/3/2020,ARKK,PROTO LABS INC,PRLB,743713109,2967897.0,395769064.95,2.88
12/3/2020,ARKK,ZILLOW GROUP INC - C,Z,98954M200,3565369.0,382457132.63,2.79
12/3/2020,ARKK,PURE STORAGE INC - CLASS A,PSTG,74624M102,18586887.0,359842132.32,2.62
12/3/2020,ARKK,TWILIO INC - A,TWLO,90138F102,969069.0,309859812.75,2.26
12/3/2020,ARKK,IOVANCE BIOTHERAPEUTICS INC,IOVA,462260100,6996642.0,292389669.18,2.13
12/3/2020,ARKK,INTELLIA THERAPEUTICS INC,NTLA,45826J105,6654627.0,285616590.84,2.08
12/3/2020,ARKK,MATERIALISE NV-ADR,MTLS,57667T100,5937269.0,276676735.4,2.02
12/3/2020,ARKK,VERACYTE INC,VCYT,92337F107,4933828.0,275800985.2,2.01
12/3/2020,ARKK,TAIWAN SEMICONDUCTOR-SP ADR,TSM,874039100,2765586.0,275175807.0,2.0
12/3/2020,ARKK,LENDINGTREE INC,TREE UW,52603B107,1130303.0,270673659.41,1.97
12/3/2020,ARKK,EXACT SCIENCES CORP,EXAS,30063P105,2014087.0,263180748.29,1.92
12/3/2020,ARKK,2U INC,TWOU,90214J101,8120745.0,260919536.85,1.9
12/3/2020,ARKK,TWIST BIOSCIENCE CORP,TWST,90184D100,2112499.0,258443127.66,1.88
12/3/2020,ARKK,PAGERDUTY INC,PD,69553P100,7613933.0,246386871.88,1.79
12/3/2020,ARKK,DOCUSIGN INC,DOCU,256163106,1047671.0,242022477.71,1.76
12/3/2020,ARKK,EDITAS MEDICINE INC,EDIT,28106W103,7140537.0,237280044.51,1.73
12/3/2020,ARKK,INTERCONTINENTAL EXCHANGE IN,ICE,45866F104,2198764.0,236279179.44,1.72
12/3/2020,ARKK,SERES THERAPEUTICS INC,MCRB,81750R102,8501171.0,214824591.17,1.56
12/3/2020,ARKK,PAYPAL HOLDINGS INC,PYPL,70450Y103,954631.0,204806534.74,1.49
12/3/2020,ARKK,SLACK TECHNOLOGIES INC- CL A,WORK,83088V102,4069790.0,173006772.9,1.26
12/3/2020,ARKK,UNITY SOFTWARE INC,U,91332U101,1170935.0,170570101.45,1.24
12/3/2020,ARKK,SHOPIFY INC - CLASS A,SHOP,82509L107,159424.0,169416696.32,1.23
12/3/2020,ARKK,NINTENDO CO LTD-UNSPONS ADR,NTDOY,654445303,2333007.0,158247864.81,1.15
12/3/2020,ARKK,KE HOLDINGS INC,BEKE,482497104,2490934.0,157227754.08,1.15
12/3/2020,ARKK,ZOOM VIDEO COMMUNICATIONS-A,ZM,98980L101,348309.0,144039703.86,1.05
12/3/2020,ARKK,SPLUNK INC,SPLK,848637104,892296.0,141009536.88,1.03
12/3/2020,ARKK,PACIFIC BIOSCIENCES OF CALIF,PACB,69404D108,7468737.0,141532566.15,1.03
12/3/2020,ARKK,COMPUGEN LTD,CGEN,M25722105,10940184.0,139924953.36,1.02
12/3/2020,ARKK,IRIDIUM COMMUNICATIONS INC,IRDM,46269C102,4002506.0,135124602.56,0.98
12/3/2020,ARKK,CERUS CORP,CERS,157085101,19218009.0,134526063.0,0.98
12/3/2020,ARKK,PINTEREST INC- CLASS A,PINS,72352L106,1884235.0,131331179.5,0.96
12/3/2020,ARKK,SYNOPSYS INC,SNPS,871607107,556283.0,130431675.01,0.95
12/3/2020,ARKK,TENCENT HOLDINGS LTD-UNS ADR,TCEHY,88032Q109,1689743.0,129180852.35,0.94
12/3/2020,ARKK,STRATASYS LTD,SSYS,M85548101,7107018.0,123022481.58,0.9
12/3/2020,ARKK,NANOSTRING TECHNOLOGIES INC,NSTG,63009R109,2150159.0,122709574.13,0.89
12/3/2020,ARKK,HUYA INC-ADR,HUYA,44852D108,5291803.0,102608060.17,0.75
12/3/2020,ARKK,MORGAN STANLEY GOVT INSTL 8035,,X9USDMORS,70799238.26,70799238.26,0.52
12/3/2020,ARKK,SEA LTD-ADR,SE,81141R100,359450.0,65969858.5,0.48
12/3/2020,ARKK,SYROS PHARMACEUTICALS INC,SYRS,87184Q107,5097545.0,38945243.8,0.28
12/3/2020,ARKK,EXONE CO/THE,XONE,302104104,1411768.0,16545920.96,0.12
12/3/2020,ARKK,ORGANOVO HOLDINGS INC,ONVO ,68620A203,835271.0,6790753.23,0.05
12/3/2020,ARKK,DOUYU INTERNATIONAL HOLD-ADR,DOYU,25985W105,361232.0,4396193.44,0.03
12/4/2020,ARKK,TESLA INC,TSLA,88160R101,2418695.0,1448895052.8,10.2
12/4/2020,ARKK,CRISPR THERAPEUTICS AG,CRSP,H17182108,6506612.0,959985534.48,6.76
12/4/2020,ARKK,ROKU INC,ROKU,77543R102,3153790.0,934720280.2,6.58
12/4/2020,ARKK,INVITAE CORP,NVTA,46185L103,17598486.0,895410967.68,6.3
12/4/2020,ARKK,SQUARE INC - A,SQ,852234103,3664161.0,762695112.15,5.37
12/4/2020,ARKK,TELADOC HEALTH INC,TDOC,87918A105,2878396.0,586214129.36,4.13
12/4/2020,ARKK,SPOTIFY TECHNOLOGY SA,SPOT,L8681T102,1317610.0,421332149.7,2.97
12/4/2020,ARKK,PROTO LABS INC,PRLB,743713109,2995023.0,407592680.07,2.87
12/4/2020,ARKK,PURE STORAGE INC - CLASS A,PSTG,74624M102,18756793.0,393892653.0,2.77
12/4/2020,ARKK,ZILLOW GROUP INC - C,Z,98954M200,3597951.0,384872818.47,2.71
12/4/2020,ARKK,TWILIO INC - A,TWLO,90138F102,977935.0,312440453.15,2.2
12/4/2020,ARKK,PAGERDUTY INC,PD,69553P100,7613933.0,310953023.72,2.19
12/4/2020,ARKK,IOVANCE BIOTHERAPEUTICS INC,IOVA,462260100,7060596.0,304382293.56,2.14
12/4/2020,ARKK,TAIWAN SEMICONDUCTOR-SP ADR,TSM,874039100,2790864.0,289496322.72,2.04
12/4/2020,ARKK,INTELLIA THERAPEUTICS INC,NTLA,45826J105,6654627.0,289076996.88,2.03
12/4/2020,ARKK,MATERIALISE NV-ADR,MTLS,57667T100,5991543.0,288133302.87,2.03
12/4/2020,ARKK,VERACYTE INC,VCYT,92337F107,4978928.0,286885831.36,2.02
12/4/2020,ARKK,EXACT SCIENCES CORP,EXAS,30063P105,2108301.0,280129953.87,1.97
12/4/2020,ARKK,LENDINGTREE INC,TREE UW,52603B107,1140643.0,279092529.24,1.96
12/4/2020,ARKK,TWIST BIOSCIENCE CORP,TWST,90184D100,2131815.0,274108772.7,1.93
12/4/2020,ARKK,2U INC,TWOU,90214J101,8120745.0,263518175.25,1.85
12/4/2020,ARKK,DOCUSIGN INC,DOCU,256163106,1057241.0,257142156.02,1.81
12/4/2020,ARKK,EDITAS MEDICINE INC,EDIT,28106W103,7140537.0,246277121.13,1.73
12/4/2020,ARKK,INTERCONTINENTAL EXCHANGE IN,ICE,45866F104,2218872.0,242367388.56,1.71
12/4/2020,ARKK,SERES THERAPEUTICS INC,MCRB,81750R102,8501171.0,216099766.82,1.52
12/4/2020,ARKK,PAYPAL HOLDINGS INC,PYPL,70450Y103,963365.0,209791996.05,1.48
12/4/2020,ARKK,UNITY SOFTWARE INC,U,91332U101,1181649.0,178358100.06,1.26
12/4/2020,ARKK,KE HOLDINGS INC,BEKE,482497104,2843255.0,176338675.1,1.24
12/4/2020,ARKK,SHOPIFY INC - CLASS A,SHOP,82509L107,160876.0,169545607.64,1.19
12/4/2020,ARKK,NINTENDO CO LTD-UNSPONS ADR,NTDOY,654445303,2354325.0,161035830.0,1.13
12/4/2020,ARKK,PACIFIC BIOSCIENCES OF CALIF,PACB,69404D108,7537025.0,152097164.5,1.07
12/4/2020,ARKK,SEA LTD-ADR,SE,81141R100,729292.0,144968663.76,1.02
12/4/2020,ARKK,SPLUNK INC,SPLK,848637104,900458.0,145036770.06,1.02
12/4/2020,ARKK,ZOOM VIDEO COMMUNICATIONS-A,ZM,98980L101,351499.0,144118104.99,1.01
12/4/2020,ARKK,COMPUGEN LTD,CGEN,M25722105,10940184.0,138830934.96,0.98
12/4/2020,ARKK,CERUS CORP,CERS,157085101,19218009.0,138177484.71,0.97
12/4/2020,ARKK,IRIDIUM COMMUNICATIONS INC,IRDM,46269C102,4039092.0,138500464.68,0.97
12/4/2020,ARKK,SYNOPSYS INC,SNPS,871607107,561365.0,132976141.2,0.94
12/4/2020,ARKK,TENCENT HOLDINGS LTD-UNS ADR,TCEHY,88032Q109,1705187.0,129133811.51,0.91
12/4/2020,ARKK,PINTEREST INC- CLASS A,PINS,72352L106,1901461.0,127987339.91,0.9
12/4/2020,ARKK,STRATASYS LTD,SSYS,M85548101,7107018.0,128068464.36,0.9
12/4/2020,ARKK,NANOSTRING TECHNOLOGIES INC,NSTG,63009R109,2138427.0,125803660.41,0.89
12/4/2020,ARKK,SLACK TECHNOLOGIES INC- CL A,WORK,83088V102,2691392.0,115191577.6,0.81
12/4/2020,ARKK,HUYA INC-ADR,HUYA,44852D108,5340181.0,101463439.0,0.71
12/4/2020,ARKK,MORGAN STANLEY GOVT INSTL 8035,,X9USDMORS,51133709.62,51133709.62,0.36
12/4/2020,ARKK,SYROS PHARMACEUTICALS INC,SYRS,87184Q107,5097545.0,39556949.2,0.28
12/4/2020,ARKK,EXONE CO/THE,XONE,302104104,1390814.0,16550686.6,0.12
12/4/2020,ARKK,ORGANOVO HOLDINGS INC,ONVO ,68620A203,835271.0,6732284.26,0.05
12/4/2020,ARKK,DOUYU INTERNATIONAL HOLD-ADR,DOYU,25985W105,210446.0,2521143.08,0.02
12/7/2020,ARKK,TESLA INC,TSLA,88160R101,2444591.0,1568840720.16,10.59
12/7/2020,ARKK,CRISPR THERAPEUTICS AG,CRSP,H17182108,6576266.0,984598545.52,6.64
12/7/2020,ARKK,ROKU INC,ROKU,77543R102,3187538.0,956197649.24,6.45
12/7/2020,ARKK,INVITAE CORP,NVTA,46185L103,17598486.0,953661956.34,6.44
12/7/2020,ARKK,SQUARE INC - A,SQ,852234103,3703369.0,787262182.02,5.31
12/7/2020,ARKK,TELADOC HEALTH INC,TDOC,87918A105,2909206.0,573986343.8,3.87
12/7/2020,ARKK,SPOTIFY TECHNOLOGY SA,SPOT,L8681T102,1331702.0,455442084.0,3.07
12/7/2020,ARKK,PROTO LABS INC,PRLB,743713109,3027081.0,424941630.78,2.87
12/7/2020,ARKK,ZILLOW GROUP INC - C,Z,98954M200,3636457.0,406992267.44,2.75
12/7/2020,ARKK,PURE STORAGE INC - CLASS A,PSTG,74624M102,18957565.0,404364861.45,2.73
12/7/2020,ARKK,IOVANCE BIOTHERAPEUTICS INC,IOVA,462260100,7136178.0,331832277.0,2.24
12/7/2020,ARKK,EXACT SCIENCES CORP,EXAS,30063P105,2342226.0,315849176.1,2.13
12/7/2020,ARKK,MATERIALISE NV-ADR,MTLS,57667T100,6055685.0,312897243.95,2.11
12/7/2020,ARKK,PAGERDUTY INC,PD,69553P100,7613933.0,311029163.05,2.1
12/7/2020,ARKK,VERACYTE INC,VCYT,92337F107,5032228.0,311394268.64,2.1
12/7/2020,ARKK,INTELLIA THERAPEUTICS INC,NTLA,45826J105,6654627.0,310039071.93,2.09
12/7/2020,ARKK,TWILIO INC - A,TWLO,90138F102,988413.0,305706256.77,2.06
12/7/2020,ARKK,TAIWAN SEMICONDUCTOR-SP ADR,TSM,874039100,2820738.0,300098315.82,2.03
12/7/2020,ARKK,LENDINGTREE INC,TREE UW,52603B107,1152863.0,297323367.7,2.01
12/7/2020,ARKK,TWIST BIOSCIENCE CORP,TWST,90184D100,2154643.0,283227822.35,1.91
12/7/2020,ARKK,EDITAS MEDICINE INC,EDIT,28106W103,7140537.0,278837969.85,1.88
12/7/2020,ARKK,2U INC,TWOU,90214J101,8120745.0,263436967.8,1.78
12/7/2020,ARKK,DOCUSIGN INC,DOCU,256163106,1068551.0,248459478.52,1.68
12/7/2020,ARKK,INTERCONTINENTAL EXCHANGE IN,ICE,45866F104,2242610.0,247315030.8,1.67
12/7/2020,ARKK,SERES THERAPEUTICS INC,MCRB,81750R102,8501171.0,214654567.75,1.45
12/7/2020,ARKK,PAYPAL HOLDINGS INC,PYPL,70450Y103,973687.0,212195607.91,1.43
12/7/2020,ARKK,UNITY SOFTWARE INC,U,91332U101,1194285.0,185962117.35,1.26
12/7/2020,ARKK,KE HOLDINGS INC,BEKE,482497104,2873675.0,178713848.25,1.21
12/7/2020,ARKK,SHOPIFY INC - CLASS A,SHOP,82509L107,162592.0,176314764.8,1.19
12/7/2020,ARKK,NINTENDO CO LTD-UNSPONS ADR,NTDOY,654445303,2379519.0,164686509.99,1.11
12/7/2020,ARKK,PACIFIC BIOSCIENCES OF CALIF,PACB,69404D108,7617703.0,163780614.5,1.11
12/7/2020,ARKK,SEA LTD-ADR,SE,81141R100,737092.0,146364358.44,0.99
12/7/2020,ARKK,ZOOM VIDEO COMMUNICATIONS-A,ZM,98980L101,355269.0,144896461.65,0.98
12/7/2020,ARKK,SPLUNK INC,SPLK,848637104,910104.0,141630384.48,0.96
12/7/2020,ARKK,IRIDIUM COMMUNICATIONS INC,IRDM,46269C102,4082330.0,140187212.2,0.95
12/7/2020,ARKK,CERUS CORP,CERS,157085101,19218009.0,141060186.06,0.95
12/7/2020,ARKK,COMPUGEN LTD,CGEN,M25722105,10940184.0,137846318.4,0.93
12/7/2020,ARKK,SYNOPSYS INC,SNPS,871607107,567371.0,135698122.07,0.92
12/7/2020,ARKK,PINTEREST INC- CLASS A,PINS,72352L106,1921819.0,135123093.89,0.91
12/7/2020,ARKK,NANOSTRING TECHNOLOGIES INC,NSTG,63009R109,2090846.0,132392368.72,0.89
12/7/2020,ARKK,TENCENT HOLDINGS LTD-UNS ADR,TCEHY,88032Q109,1723439.0,130679762.18,0.88
12/7/2020,ARKK,STRATASYS LTD,SSYS,M85548101,7107018.0,122880341.22,0.83
12/7/2020,ARKK,SLACK TECHNOLOGIES INC- CL A,WORK,83088V102,2720200.0,116098136.0,0.78
12/7/2020,ARKK,HUYA INC-ADR,HUYA,44852D108,5397355.0,102495771.45,0.69
12/7/2020,ARKK,MORGAN STANLEY GOVT INSTL 8035,,X9USDMORS,90256360.22,90256360.22,0.61
12/7/2020,ARKK,SYROS PHARMACEUTICALS INC,SYRS,87184Q107,5097545.0,46387659.5,0.31
12/7/2020,ARKK,EXONE CO/THE,XONE,302104104,1378985.0,16203073.75,0.11
12/7/2020,ARKK,ORGANOVO HOLDINGS INC,ONVO ,68620A203,835271.0,6740636.97,0.05
12/10/2020,ARKK,TESLA INC,TSLA,88160R101,2547179.0,1597259535.53,10.01
12/10/2020,ARKK,ROKU INC,ROKU,77543R102,3321307.0,1069427640.93,6.7
12/10/2020,ARKK,CRISPR THERAPEUTICS AG,CRSP,H17182108,6576266.0,1014454793.16,6.35
12/10/2020,ARKK,INVITAE CORP,NVTA,46185L103,17598486.0,1010153096.4,6.33
12/10/2020,ARKK,SQUARE INC - A,SQ,852234103,3858796.0,838323431.0,5.25
12/10/2020,ARKK,TELADOC HEALTH INC,TDOC,87918A105,3089738.0,614888759.38,3.85
12/10/2020,ARKK,EDITAS MEDICINE INC,EDIT,28106W103,7140537.0,477273493.08,2.99
12/10/2020,ARKK,SPOTIFY TECHNOLOGY SA,SPOT,L8681T102,1387528.0,476338362.4,2.98
12/10/2020,ARKK,PROTO LABS INC,PRLB,743713109,3154080.0,462072720.0,2.89
12/10/2020,ARKK,ZILLOW GROUP INC - C,Z,98954M200,3789044.0,458815337.96,2.87
12/10/2020,ARKK,PURE STORAGE INC - CLASS A,PSTG,74624M102,19753006.0,431405651.04,2.7
12/10/2020,ARKK,INTELLIA THERAPEUTICS INC,NTLA,45826J105,6654627.0,371727464.22,2.33
12/10/2020,ARKK,IOVANCE BIOTHERAPEUTICS INC,IOVA,462260100,7435599.0,367913438.52,2.3
12/10/2020,ARKK,TWILIO INC - A,TWLO,90138F102,1029922.0,344519208.22,2.16
12/10/2020,ARKK,TWIST BIOSCIENCE CORP,TWST,90184D100,2245077.0,341700719.4,2.14
12/10/2020,ARKK,LENDINGTREE INC,TREE UW,52603B107,1201273.0,329124776.54,2.06
12/10/2020,ARKK,PAGERDUTY INC,PD,69553P100,7613933.0,326866143.69,2.05
12/10/2020,ARKK,EXACT SCIENCES CORP,EXAS,30063P105,2440488.0,324316450.32,2.03
12/10/2020,ARKK,TAIWAN SEMICONDUCTOR-SP ADR,TSM,874039100,2939085.0,306340829.55,1.92
12/10/2020,ARKK,VERACYTE INC,VCYT,92337F107,5032228.0,287440863.36,1.8
12/10/2020,ARKK,2U INC,TWOU,90214J101,8120745.0,278216723.7,1.74
12/10/2020,ARKK,MATERIALISE NV-ADR,MTLS,57667T100,6055685.0,258880533.75,1.62
12/10/2020,ARKK,INTERCONTINENTAL EXCHANGE IN,ICE,45866F104,2336752.0,255266788.48,1.6
12/10/2020,ARKK,DOCUSIGN INC,DOCU,256163106,1113356.0,247821912.04,1.55
12/10/2020,ARKK,KE HOLDINGS INC,BEKE,482497104,3388750.0,230435000.0,1.44
12/10/2020,ARKK,PAYPAL HOLDINGS INC,PYPL,70450Y103,1014578.0,218479226.52,1.37
12/10/2020,ARKK,SERES THERAPEUTICS INC,MCRB,81750R102,8501171.0,212869321.84,1.33
12/10/2020,ARKK,UNITY SOFTWARE INC,U,91332U101,1244446.0,196846468.28,1.23
12/10/2020,ARKK,ZOOM VIDEO COMMUNICATIONS-A,ZM,98980L101,467925.0,186215433.0,1.17
12/10/2020,ARKK,SHOPIFY INC - CLASS A,SHOP,82509L107,169390.0,180801804.3,1.13
12/10/2020,ARKK,NINTENDO CO LTD-UNSPONS ADR,NTDOY,654445303,2479354.0,176406037.1,1.11
12/10/2020,ARKK,PACIFIC BIOSCIENCES OF CALIF,PACB,69404D108,7617703.0,167132403.82,1.05
12/10/2020,ARKK,SEA LTD-ADR,SE,81141R100,767992.0,152792008.4,0.96
12/10/2020,ARKK,CERUS CORP,CERS,157085101,19218009.0,149516110.02,0.94
12/10/2020,ARKK,NANOSTRING TECHNOLOGIES INC,NSTG,63009R109,2178602.0,147491355.4,0.92
12/10/2020,ARKK,SPLUNK INC,SPLK,848637104,948317.0,145557176.33,0.91
12/10/2020,ARKK,IRIDIUM COMMUNICATIONS INC,IRDM,46269C102,4253619.0,145516305.99,0.91
12/10/2020,ARKK,MORGAN STANLEY GOVT INSTL 8035,,X9USDMORS,143671254.72,143671254.72,0.9
12/10/2020,ARKK,PINTEREST INC- CLASS A,PINS,72352L106,2002468.0,143456807.52,0.9
12/10/2020,ARKK,SYNOPSYS INC,SNPS,871607107,591164.0,138432873.88,0.87
12/10/2020,ARKK,COMPUGEN LTD,CGEN,M25722105,10940184.0,136533496.32,0.86
12/10/2020,ARKK,TENCENT HOLDINGS LTD-UNS ADR,TCEHY,88032Q109,1795745.0,136189300.8,0.85
12/10/2020,ARKK,STRATASYS LTD,SSYS,M85548101,7107018.0,132403745.34,0.83
12/10/2020,ARKK,SLACK TECHNOLOGIES INC- CL A,WORK,83088V102,2834324.0,119948591.68,0.75
12/10/2020,ARKK,HUYA INC-ADR,HUYA,44852D108,5623852.0,112477040.0,0.7
12/10/2020,ARKK,SYROS PHARMACEUTICALS INC,SYRS,87184Q107,5097545.0,52198860.8,0.33
12/10/2020,ARKK,BAIDU INC - SPON ADR,BIDU,056752108,173825.0,27519974.0,0.17
12/10/2020,ARKK,EXONE CO/THE,XONE,302104104,1192185.0,14175079.65,0.09
12/10/2020,ARKK,ORGANOVO HOLDINGS INC,ONVO ,68620A203,835271.0,6381470.44,0.04
12/11/2020,ARKK,TESLA INC,TSLA,88160R101,2579051.0,1573195319.49,9.85
12/11/2020,ARKK,ROKU INC,ROKU,77543R102,3362875.0,1112674451.25,6.97
12/11/2020,ARKK,INVITAE CORP,NVTA,46185L103,17598486.0,996074307.6,6.24
12/11/2020,ARKK,CRISPR THERAPEUTICS AG,CRSP,H17182108,6576266.0,975983637.06,6.11
12/11/2020,ARKK,SQUARE INC - A,SQ,852234103,3907084.0,846235323.56,5.3
12/11/2020,ARKK,TELADOC HEALTH INC,TDOC,87918A105,3128394.0,624364874.52,3.91
12/11/2020,ARKK,ZILLOW GROUP INC - C,Z,98954M200,3836436.0,485194060.92,3.04
12/11/2020,ARKK,SPOTIFY TECHNOLOGY SA,SPOT,L8681T102,1404872.0,479370423.84,3.0
12/11/2020,ARKK,PROTO LABS INC,PRLB,743713109,3193536.0,475134286.08,2.98
12/11/2020,ARKK,EDITAS MEDICINE INC,EDIT,28106W103,7140537.0,442142051.04,2.77
12/11/2020,ARKK,PURE STORAGE INC - CLASS A,PSTG,74624M102,20000142.0,432403070.04,2.71
12/11/2020,ARKK,IOVANCE BIOTHERAPEUTICS INC,IOVA,462260100,7528623.0,376054718.85,2.36
12/11/2020,ARKK,TWILIO INC - A,TWLO,90138F102,1042818.0,357071311.38,2.24
12/11/2020,ARKK,INTELLIA THERAPEUTICS INC,NTLA,45826J105,6654627.0,354425434.02,2.22
12/11/2020,ARKK,LENDINGTREE INC,TREE UW,52603B107,1216313.0,332114264.65,2.08
12/11/2020,ARKK,PAGERDUTY INC,PD,69553P100,7613933.0,329302602.25,2.06
12/11/2020,ARKK,TWIST BIOSCIENCE CORP,TWST,90184D100,2273173.0,321994955.45,2.02
12/11/2020,ARKK,EXACT SCIENCES CORP,EXAS,30063P105,2471016.0,319996572.0,2.0
12/11/2020,ARKK,TAIWAN SEMICONDUCTOR-SP ADR,TSM,874039100,2975853.0,309577987.59,1.94
12/11/2020,ARKK,VERACYTE INC,VCYT,92337F107,5032228.0,279489943.12,1.75
12/11/2020,ARKK,2U INC,TWOU,90214J101,8120745.0,274075143.75,1.72
12/11/2020,ARKK,INTERCONTINENTAL EXCHANGE IN,ICE,45866F104,2366000.0,257468120.0,1.61
12/11/2020,ARKK,DOCUSIGN INC,DOCU,256163106,1127276.0,254189465.24,1.59
12/11/2020,ARKK,MATERIALISE NV-ADR,MTLS,57667T100,6055685.0,252158723.4,1.58
12/11/2020,ARKK,KE HOLDINGS INC,BEKE,482497104,3431150.0,226901949.5,1.42
12/11/2020,ARKK,PAYPAL HOLDINGS INC,PYPL,70450Y103,1027282.0,219899984.92,1.38
12/11/2020,ARKK,SERES THERAPEUTICS INC,MCRB,81750R102,8501171.0,206918502.14,1.3
12/11/2020,ARKK,UNITY SOFTWARE INC,U,91332U101,1260030.0,192154575.0,1.2
12/11/2020,ARKK,ZOOM VIDEO COMMUNICATIONS-A,ZM,98980L101,473781.0,188095794.81,1.18
12/11/2020,ARKK,SHOPIFY INC - CLASS A,SHOP,82509L107,171502.0,181426820.74,1.14
12/11/2020,ARKK,NINTENDO CO LTD-UNSPONS ADR,NTDOY,654445303,2510362.0,182729249.98,1.14
12/11/2020,ARKK,PACIFIC BIOSCIENCES OF CALIF,PACB,69404D108,7617703.0,161076329.94,1.01
12/11/2020,ARKK,NANOSTRING TECHNOLOGIES INC,NSTG,63009R109,2205866.0,151984167.4,0.95
12/11/2020,ARKK,SEA LTD-ADR,SE,81141R100,777592.0,150370740.96,0.94
12/11/2020,ARKK,SPLUNK INC,SPLK,848637104,960189.0,149069342.25,0.93
12/11/2020,ARKK,CERUS CORP,CERS,157085101,19218009.0,147594309.12,0.92
12/11/2020,ARKK,IRIDIUM COMMUNICATIONS INC,IRDM,46269C102,4306835.0,142986922.0,0.9
12/11/2020,ARKK,PINTEREST INC- CLASS A,PINS,72352L106,2027524.0,144217782.12,0.9
12/11/2020,ARKK,SYNOPSYS INC,SNPS,871607107,598556.0,141492652.84,0.89
12/11/2020,ARKK,MORGAN STANLEY GOVT INSTL 8035,,X9USDMORS,140565861.87,140565861.87,0.88
12/11/2020,ARKK,TENCENT HOLDINGS LTD-UNS ADR,TCEHY,88032Q109,1818209.0,136620224.26,0.86
12/11/2020,ARKK,COMPUGEN LTD,CGEN,M25722105,10940184.0,136095888.96,0.85
12/11/2020,ARKK,STRATASYS LTD,SSYS,M85548101,7107018.0,129774148.68,0.81
12/11/2020,ARKK,HUYA INC-ADR,HUYA,44852D108,5694220.0,115877377.0,0.73
12/11/2020,ARKK,SLACK TECHNOLOGIES INC- CL A,WORK,83088V102,2474108.0,104506321.92,0.65
12/11/2020,ARKK,BAIDU INC - SPON ADR,BIDU,056752108,504145.0,81288339.8,0.51
12/11/2020,ARKK,SYROS PHARMACEUTICALS INC,SYRS,87184Q107,5097545.0,51740081.75,0.32
12/11/2020,ARKK,EXONE CO/THE,XONE,302104104,1189607.0,13406870.89,0.08
12/11/2020,ARKK,ORGANOVO HOLDINGS INC,ONVO ,68620A203,835271.0,6423233.99,0.04
12/14/2020,ARKK,TESLA INC,TSLA,88160R101,2605943.0,1667360509.69,10.33
12/14/2020,ARKK,ROKU INC,ROKU,77543R102,3397921.0,1102013738.72,6.83
12/14/2020,ARKK,CRISPR THERAPEUTICS AG,CRSP,H17182108,6576266.0,986834475.96,6.11
12/14/2020,ARKK,INVITAE CORP,NVTA,46185L103,17598486.0,954541880.64,5.91
12/14/2020,ARKK,SQUARE INC - A,SQ,852234103,3947827.0,852177936.22,5.28
12/14/2020,ARKK,TELADOC HEALTH INC,TDOC,87918A105,3161010.0,615227376.3,3.81
12/14/2020,ARKK,ZILLOW GROUP INC - C,Z,98954M200,3876423.0,520099673.91,3.22
12/14/2020,ARKK,PROTO LABS INC,PRLB,743713109,3226827.0,490703581.89,3.04
12/14/2020,ARKK,SPOTIFY TECHNOLOGY SA,SPOT,L8681T102,1419506.0,454724552.04,2.82
12/14/2020,ARKK,EDITAS MEDICINE INC,EDIT,28106W103,7140537.0,439071620.13,2.72
12/14/2020,ARKK,PURE STORAGE INC - CLASS A,PSTG,74624M102,20208663.0,436507120.8,2.7
12/14/2020,ARKK,IOVANCE BIOTHERAPEUTICS INC,IOVA,462260100,7607112.0,382333449.12,2.37
12/14/2020,ARKK,TWILIO INC - A,TWLO,90138F102,1053699.0,368889482.91,2.28
12/14/2020,ARKK,INTELLIA THERAPEUTICS INC,NTLA,45826J105,6654627.0,346706066.7,2.15
12/14/2020,ARKK,PAGERDUTY INC,PD,69553P100,7613933.0,336383559.94,2.08
12/14/2020,ARKK,LENDINGTREE INC,TREE UW,52603B107,1229003.0,325931595.6,2.02
12/14/2020,ARKK,EXACT SCIENCES CORP,EXAS,30063P105,2496774.0,324081265.2,2.01
12/14/2020,ARKK,TWIST BIOSCIENCE CORP,TWST,90184D100,2296879.0,322148764.15,2.0
12/14/2020,ARKK,TAIWAN SEMICONDUCTOR-SP ADR,TSM,874039100,3006876.0,311392078.56,1.93
12/14/2020,ARKK,2U INC,TWOU,90214J101,8120745.0,299087038.35,1.85
12/14/2020,ARKK,VERACYTE INC,VCYT,92337F107,5032228.0,278936398.04,1.73
12/14/2020,ARKK,DOCUSIGN INC,DOCU,256163106,1139021.0,260072664.93,1.61
12/14/2020,ARKK,INTERCONTINENTAL EXCHANGE IN,ICE,45866F104,2390678.0,257499927.38,1.6
12/14/2020,ARKK,MATERIALISE NV-ADR,MTLS,57667T100,6055685.0,248283085.0,1.54
12/14/2020,ARKK,PAYPAL HOLDINGS INC,PYPL,70450Y103,1038001.0,229180240.79,1.42
12/14/2020,ARKK,KE HOLDINGS INC,BEKE,482497104,3466925.0,228193003.5,1.41
12/14/2020,ARKK,SERES THERAPEUTICS INC,MCRB,81750R102,8501171.0,210914052.51,1.31
12/14/2020,ARKK,NINTENDO CO LTD-UNSPONS ADR,NTDOY,654445303,2536525.0,190873506.25,1.18
12/14/2020,ARKK,ZOOM VIDEO COMMUNICATIONS-A,ZM,98980L101,478722.0,189569124.78,1.17
12/14/2020,ARKK,MORGAN STANLEY GOVT INSTL 8035,,X9USDMORS,186598516.08,186598516.08,1.16
12/14/2020,ARKK,UNITY SOFTWARE INC,U,91332U101,1273179.0,186800822.88,1.16
12/14/2020,ARKK,SHOPIFY INC - CLASS A,SHOP,82509L107,173284.0,183537214.28,1.14
12/14/2020,ARKK,PACIFIC BIOSCIENCES OF CALIF,PACB,69404D108,7617703.0,159209992.7,0.99
12/14/2020,ARKK,SPLUNK INC,SPLK,848637104,970206.0,154631432.28,0.96
12/14/2020,ARKK,NANOSTRING TECHNOLOGIES INC,NSTG,63009R109,2228870.0,153803174.35,0.95
12/14/2020,ARKK,SEA LTD-ADR,SE,81141R100,785692.0,149485759.92,0.93
12/14/2020,ARKK,IRIDIUM COMMUNICATIONS INC,IRDM,46269C102,4351736.0,148220128.16,0.92
12/14/2020,ARKK,PINTEREST INC- CLASS A,PINS,72352L106,2048665.0,142976330.35,0.89
12/14/2020,ARKK,SYNOPSYS INC,SNPS,871607107,604793.0,144460855.98,0.89
12/14/2020,ARKK,COMPUGEN LTD,CGEN,M25722105,10940184.0,141347177.28,0.88
12/14/2020,ARKK,STRATASYS LTD,SSYS,M85548101,7107018.0,139652903.7,0.87
12/14/2020,ARKK,CERUS CORP,CERS,157085101,19218009.0,137024404.17,0.85
12/14/2020,ARKK,TENCENT HOLDINGS LTD-UNS ADR,TCEHY,88032Q109,1837163.0,134406845.08,0.83
12/14/2020,ARKK,HUYA INC-ADR,HUYA,44852D108,5753593.0,116222578.6,0.72
12/14/2020,ARKK,BAIDU INC - SPON ADR,BIDU,056752108,509410.0,83013453.6,0.51
12/14/2020,ARKK,SLACK TECHNOLOGIES INC- CL A,WORK,83088V102,1761493.0,74440694.18,0.46
12/14/2020,ARKK,SYROS PHARMACEUTICALS INC,SYRS,87184Q107,5097545.0,59386399.25,0.37
12/14/2020,ARKK,EXONE CO/THE,XONE,302104104,1109064.0,12887323.68,0.08
12/14/2020,ARKK,ORGANOVO HOLDINGS INC,ONVO ,68620A203,835271.0,6206063.53,0.04
12/15/2020,ARKK,TESLA INC,TSLA,88160R101,2616899.0,1657151291.75,10.08
12/15/2020,ARKK,ROKU INC,ROKU,77543R102,3412199.0,1092381387.86,6.65
12/15/2020,ARKK,CRISPR THERAPEUTICS AG,CRSP,H17182108,6576266.0,986242612.02,6.0
12/15/2020,ARKK,INVITAE CORP,NVTA,46185L103,17598486.0,891187331.04,5.42
12/15/2020,ARKK,SQUARE INC - A,SQ,852234103,3964426.0,872134075.74,5.31
12/15/2020,ARKK,TELADOC HEALTH INC,TDOC,87918A105,3202029.0,627949907.19,3.82
12/15/2020,ARKK,ZILLOW GROUP INC - C,Z,98954M200,3892725.0,520846605.0,3.17
12/15/2020,ARKK,PROTO LABS INC,PRLB,743713109,3240390.0,506408149.2,3.08
12/15/2020,ARKK,SPOTIFY TECHNOLOGY SA,SPOT,L8681T102,1425468.0,466085271.96,2.84
12/15/2020,ARKK,EDITAS MEDICINE INC,EDIT,28106W103,7140537.0,463635067.41,2.82
12/15/2020,ARKK,PURE STORAGE INC - CLASS A,PSTG,74624M102,20293616.0,438342105.6,2.67
12/15/2020,ARKK,IOVANCE BIOTHERAPEUTICS INC,IOVA,462260100,7639089.0,365301235.98,2.22
12/15/2020,ARKK,TWILIO INC - A,TWLO,90138F102,1058132.0,365161353.2,2.22
12/15/2020,ARKK,INTELLIA THERAPEUTICS INC,NTLA,45826J105,6654627.0,356887646.01,2.17
12/15/2020,ARKK,PAGERDUTY INC,PD,69553P100,7613933.0,341484895.05,2.08
12/15/2020,ARKK,LENDINGTREE INC,TREE UW,52603B107,1234173.0,334288098.78,2.03
12/15/2020,ARKK,EXACT SCIENCES CORP,EXAS,30063P105,2507268.0,324415406.52,1.97
12/15/2020,ARKK,TWIST BIOSCIENCE CORP,TWST,90184D100,2306537.0,321069950.4,1.95
12/15/2020,ARKK,TAIWAN SEMICONDUCTOR-SP ADR,TSM,874039100,3019515.0,317320831.35,1.93
12/15/2020,ARKK,DOCUSIGN INC,DOCU,256163106,1343916.0,314073169.2,1.91
12/15/2020,ARKK,PAYPAL HOLDINGS INC,PYPL,70450Y103,1390829.0,308207706.4,1.88
12/15/2020,ARKK,2U INC,TWOU,90214J101,8120745.0,291372330.6,1.77
12/15/2020,ARKK,VERACYTE INC,VCYT,92337F107,5032228.0,272847402.16,1.66
12/15/2020,ARKK,MATERIALISE NV-ADR,MTLS,57667T100,6055685.0,268448516.05,1.63
12/15/2020,ARKK,INTERCONTINENTAL EXCHANGE IN,ICE,45866F104,2400732.0,266433237.36,1.62
12/15/2020,ARKK,SHOPIFY INC - CLASS A,SHOP,82509L107,211415.0,227080851.5,1.38
12/15/2020,ARKK,KE HOLDINGS INC,BEKE,482497104,3481500.0,221493030.0,1.35
12/15/2020,ARKK,SERES THERAPEUTICS INC,MCRB,81750R102,8501171.0,218650118.12,1.33
12/15/2020,ARKK,MORGAN STANLEY GOVT INSTL 8035,,X9USDMORS,211926424.9,211926424.9,1.29
12/15/2020,ARKK,ZOOM VIDEO COMMUNICATIONS-A,ZM,98980L101,522974.0,208891504.82,1.27
12/15/2020,ARKK,NINTENDO CO LTD-UNSPONS ADR,NTDOY,654445303,2547195.0,189027340.95,1.15
12/15/2020,ARKK,UNITY SOFTWARE INC,U,91332U101,1278536.0,184850734.88,1.12
12/15/2020,ARKK,BAIDU INC - SPON ADR,BIDU,056752108,983663.0,182469486.5,1.11
12/15/2020,ARKK,PACIFIC BIOSCIENCES OF CALIF,PACB,69404D108,7617703.0,157991160.22,0.96
12/15/2020,ARKK,SPLUNK INC,SPLK,848637104,974287.0,157639636.6,0.96
12/15/2020,ARKK,IRIDIUM COMMUNICATIONS INC,IRDM,46269C102,4370029.0,156578139.07,0.95
12/15/2020,ARKK,NANOSTRING TECHNOLOGIES INC,NSTG,63009R109,2238242.0,156005467.4,0.95
12/15/2020,ARKK,SEA LTD-ADR,SE,81141R100,788992.0,148401505.28,0.9
12/15/2020,ARKK,SYNOPSYS INC,SNPS,871607107,607334.0,147424255.16,0.9
12/15/2020,ARKK,PINTEREST INC- CLASS A,PINS,72352L106,2057278.0,145470127.38,0.89
12/15/2020,ARKK,COMPUGEN LTD,CGEN,M25722105,10940184.0,142441195.68,0.87
12/15/2020,ARKK,STRATASYS LTD,SSYS,M85548101,7107018.0,139652903.7,0.85
12/15/2020,ARKK,CERUS CORP,CERS,157085101,19218009.0,136255683.81,0.83
12/15/2020,ARKK,TENCENT HOLDINGS LTD-UNS ADR,TCEHY,88032Q109,1844885.0,134897991.2,0.82
12/15/2020,ARKK,HUYA INC-ADR,HUYA,44852D108,5777782.0,116711196.4,0.71
12/15/2020,ARKK,SYROS PHARMACEUTICALS INC,SYRS,87184Q107,5097545.0,60660785.5,0.37
12/15/2020,ARKK,EXONE CO/THE,XONE,302104104,1070718.0,12645179.58,0.08
12/15/2020,ARKK,ORGANOVO HOLDINGS INC,ONVO ,68620A203,835271.0,6047362.04,0.04
12/16/2020,ARKK,TESLA INC,TSLA,88160R101,2639807.0,1643992605.39,9.87
12/16/2020,ARKK,ROKU INC,ROKU,77543R102,3442053.0,1121489708.46,6.74
12/16/2020,ARKK,CRISPR THERAPEUTICS AG,CRSP,H17182108,6576266.0,964146358.26,5.79
12/16/2020,ARKK,SQUARE INC - A,SQ,852234103,3999110.0,908117898.8,5.45
12/16/2020,ARKK,INVITAE CORP,NVTA,46185L103,17598486.0,891539300.76,5.36
12/16/2020,ARKK,TELADOC HEALTH INC,TDOC,87918A105,3621679.0,677507490.53,4.07
12/16/2020,ARKK,ZILLOW GROUP INC - C,Z,98954M200,3926788.0,530116380.0,3.18
12/16/2020,ARKK,PROTO LABS INC,PRLB,743713109,3240390.0,504982377.6,3.03
12/16/2020,ARKK,SPOTIFY TECHNOLOGY SA,SPOT,L8681T102,1437934.0,458025117.02,2.75
12/16/2020,ARKK,EDITAS MEDICINE INC,EDIT,28106W103,7140537.0,456922962.63,2.74
12/16/2020,ARKK,PURE STORAGE INC - CLASS A,PSTG,74624M102,20471199.0,448114546.11,2.69
12/16/2020,ARKK,TWILIO INC - A,TWLO,90138F102,1067401.0,374529662.88,2.25
12/16/2020,ARKK,INTELLIA THERAPEUTICS INC,NTLA,45826J105,6654627.0,355157442.99,2.13
12/16/2020,ARKK,IOVANCE BIOTHERAPEUTICS INC,IOVA,462260100,7705927.0,354626760.54,2.13
12/16/2020,ARKK,PAGERDUTY INC,PD,69553P100,7613933.0,351459147.28,2.11
12/16/2020,ARKK,DOCUSIGN INC,DOCU,256163106,1407048.0,333582939.84,2.0
12/16/2020,ARKK,LENDINGTREE INC,TREE UW,52603B107,1234173.0,330746022.27,1.99
12/16/2020,ARKK,TWIST BIOSCIENCE CORP,TWST,90184D100,2326731.0,329209169.19,1.98
12/16/2020,ARKK,PAYPAL HOLDINGS INC,PYPL,70450Y103,1422845.0,327538919.0,1.97
12/16/2020,ARKK,EXACT SCIENCES CORP,EXAS,30063P105,2529210.0,322044309.3,1.93
12/16/2020,ARKK,TAIWAN SEMICONDUCTOR-SP ADR,TSM,874039100,3045942.0,320433098.4,1.92
12/16/2020,ARKK,2U INC,TWOU,90214J101,8120745.0,295595118.0,1.78
12/16/2020,ARKK,MORGAN STANLEY GOVT INSTL 8035,,X9USDMORS,295772248.63,295772248.63,1.78
12/16/2020,ARKK,INTERCONTINENTAL EXCHANGE IN,ICE,45866F104,2421731.0,269562877.61,1.62
12/16/2020,ARKK,MATERIALISE NV-ADR,MTLS,57667T100,6055685.0,264209536.55,1.59
12/16/2020,ARKK,SHOPIFY INC - CLASS A,SHOP,82509L107,213278.0,246828762.18,1.48
12/16/2020,ARKK,VERACYTE INC,VCYT,92337F107,5032228.0,240993398.92,1.45
12/16/2020,ARKK,KE HOLDINGS INC,BEKE,482497104,3511975.0,221219305.25,1.33
12/16/2020,ARKK,ZOOM VIDEO COMMUNICATIONS-A,ZM,98980L101,527551.0,213130604.0,1.28
12/16/2020,ARKK,SERES THERAPEUTICS INC,MCRB,81750R102,8501171.0,205898361.62,1.24
12/16/2020,ARKK,NINTENDO CO LTD-UNSPONS ADR,NTDOY,654445303,2569482.0,197002184.94,1.18
12/16/2020,ARKK,UNITY SOFTWARE INC,U,91332U101,1289714.0,189188146.66,1.14
12/16/2020,ARKK,BAIDU INC - SPON ADR,BIDU,056752108,992265.0,188927256.0,1.13
12/16/2020,ARKK,SPLUNK INC,SPLK,848637104,982820.0,159550998.8,0.96
12/16/2020,ARKK,PACIFIC BIOSCIENCES OF CALIF,PACB,69404D108,7617703.0,157610275.07,0.95
12/16/2020,ARKK,IRIDIUM COMMUNICATIONS INC,IRDM,46269C102,4408278.0,156934696.8,0.94
12/16/2020,ARKK,SEA LTD-ADR,SE,81141R100,795892.0,153599197.08,0.92
12/16/2020,ARKK,NANOSTRING TECHNOLOGIES INC,NSTG,63009R109,2257838.0,153420092.1,0.92
12/16/2020,ARKK,SYNOPSYS INC,SNPS,871607107,612647.0,151997720.7,0.91
12/16/2020,ARKK,PINTEREST INC- CLASS A,PINS,72352L106,2075287.0,145830417.49,0.88
12/16/2020,ARKK,STRATASYS LTD,SSYS,M85548101,7107018.0,141642868.74,0.85
12/16/2020,ARKK,TENCENT HOLDINGS LTD-UNS ADR,TCEHY,88032Q109,1861031.0,137827955.86,0.83
12/16/2020,ARKK,COMPUGEN LTD,CGEN,M25722105,10940184.0,132048020.88,0.79
12/16/2020,ARKK,CERUS CORP,CERS,157085101,19218009.0,131259001.47,0.79
12/16/2020,ARKK,HUYA INC-ADR,HUYA,44852D108,5828359.0,119073374.37,0.72
12/16/2020,ARKK,SYROS PHARMACEUTICALS INC,SYRS,87184Q107,5097545.0,56429823.15,0.34
12/16/2020,ARKK,EXONE CO/THE,XONE,302104104,1067784.0,12300871.68,0.07
12/16/2020,ARKK,ORGANOVO HOLDINGS INC,ONVO ,68620A203,835271.0,6072420.17,0.04
